<?xml version="1.0" encoding="utf-8"?>
<!-- Generator: Adobe Illustrator 16.0.0, SVG Export Plug-In . SVG Version: 6.00 Build 0)  -->
<!DOCTYPE svg PUBLIC "-//W3C//DTD SVG 1.1//EN" "http://www.w3.org/Graphics/SVG/1.1/DTD/svg11.dtd">
<svg version="1.1" id="Layer_1" xmlns="http://www.w3.org/2000/svg" xmlns:xlink="http://www.w3.org/1999/xlink" x="0px" y="0px"
	 width="1400px" height="980px" viewBox="0 0 1400 980" enable-background="new 0 0 1400 980" xml:space="preserve">
<g>
	<g>
		<rect fill="#FFFFFF" width="1399.994" height="980"/>
	</g>
</g>
<g opacity="0.3">
	<polygon fill="#FFE79D" points="414.921,917.041 699.998,212.376 985.076,917.041 	"/>
</g>
<g opacity="0.3">
	<polygon fill="#FFE79D" points="554.17,930.887 699.998,371.785 845.826,930.887 	"/>
</g>
<g>
	<path fill="#85D2FF" d="M780.984,220.769c-4.898,0-7.621-2.271-6.055-5.049l18.922-33.567c1.57-2.777,4.131-2.777,5.693,0
		l18.928,33.567c1.564,2.777-1.162,5.049-6.059,5.049H780.984z"/>
	<path d="M809.559,219.295h-31.43c-3.527,0-6.177-1.071-7.268-2.939c-0.708-1.214-0.675-2.639,0.1-4.013l18.922-33.567
		c0.998-1.762,2.404-2.733,3.962-2.733l0,0c1.537,0,2.979,0.996,3.958,2.734l18.925,33.566c0.774,1.373,0.81,2.797,0.102,4.012
		C815.735,218.224,813.086,219.295,809.559,219.295z M793.845,178.596c-0.59,0-1.223,0.523-1.739,1.435l-18.92,33.566
		c-0.48,0.852-0.209,1.318-0.12,1.471c0.451,0.773,2.048,1.674,5.063,1.674h31.43c3.016,0,4.613-0.903,5.063-1.676
		c0.09-0.153,0.362-0.618-0.117-1.469l-18.928-33.567C795.065,179.118,794.433,178.596,793.845,178.596z"/>
</g>
<g>
	<polygon fill="#D1D3D4" points="739.596,289.696 702.854,289.696 666.11,289.696 650.925,316.35 702.854,316.35 754.781,316.35 	
		"/>
	<path d="M751.925,314.876H648.069c-0.455,0-0.875-0.242-1.104-0.635c-0.229-0.394-0.23-0.878-0.006-1.274l15.185-26.653
		c0.227-0.399,0.65-0.645,1.11-0.645h73.485c0.458,0,0.882,0.246,1.109,0.645l15.186,26.653c0.225,0.396,0.224,0.88-0.006,1.274
		C752.801,314.634,752.38,314.876,751.925,314.876z M650.266,312.322h99.463l-13.732-24.1h-72L650.266,312.322z"/>
</g>
<g>
	<path fill="#85D2FF" d="M593.285,220.769c-4.897,0-7.62-2.271-6.054-5.049l18.921-33.567c1.571-2.777,4.132-2.777,5.695,0
		l18.927,33.567c1.566,2.777-1.162,5.049-6.059,5.049H593.285z"/>
	<path d="M621.86,219.295h-31.431c-3.527,0-6.175-1.071-7.265-2.938c-0.709-1.216-0.674-2.641,0.1-4.014l18.922-33.567
		c0.997-1.762,2.403-2.733,3.961-2.733l0,0c1.538,0,2.98,0.996,3.958,2.734l18.926,33.566c0.774,1.373,0.81,2.797,0.1,4.012
		C628.038,218.224,625.388,219.295,621.86,219.295z M606.147,178.596c-0.59,0-1.223,0.523-1.739,1.435l-18.92,33.566
		c-0.481,0.852-0.208,1.318-0.12,1.471c0.452,0.773,2.047,1.674,5.062,1.674h31.431c3.017,0,4.614-0.903,5.065-1.676
		c0.09-0.153,0.362-0.618-0.118-1.469L607.88,180.03C607.368,179.118,606.735,178.596,606.147,178.596z"/>
</g>
<g>
	<polygon fill="#85D2FF" points="739.401,233.193 750.816,267.002 776.287,267.002 776.287,233.193 	"/>
	<path d="M776.287,268.278h-25.471c-0.548,0-1.036-0.349-1.21-0.868l-11.415-33.809c-0.132-0.39-0.066-0.819,0.172-1.153
		c0.24-0.334,0.627-0.532,1.038-0.532h36.886c0.705,0,1.276,0.572,1.276,1.277v33.809
		C777.563,267.708,776.992,268.278,776.287,268.278z M751.731,265.725h23.279v-31.256H741.18L751.731,265.725z"/>
</g>
<g>
	<polygon fill="#85D2FF" points="623.7,233.193 623.7,267.002 649.179,267.002 660.593,233.193 	"/>
	<path d="M649.179,268.278H623.7c-0.706,0-1.276-0.571-1.276-1.276v-33.809c0-0.706,0.571-1.277,1.276-1.277h36.894
		c0.412,0,0.797,0.198,1.037,0.532c0.24,0.334,0.304,0.763,0.172,1.153l-11.415,33.809
		C650.213,267.93,649.727,268.278,649.179,268.278z M624.977,265.725h23.285l10.554-31.256h-33.839V265.725z"/>
</g>
<g>
	<path fill="#FF9482" d="M753.746,269.981l-0.074-0.229l-11.414-33.809l-32.75-97.02c-3.66-10.846-9.649-10.846-13.31,0
		l-32.749,97.02l-11.414,33.809l-0.078,0.229c-3.66,10.846,2.708,19.715,14.152,19.715h73.486
		C751.039,289.696,757.406,280.827,753.746,269.981z M702.854,276.035c-6.5,0-12.377-2.416-17.002-6.283
		c-5.856-4.892-9.658-12.15-9.658-20.375c0-4.921,1.428-9.479,3.755-13.433c4.635-7.879,13.106-13.225,22.906-13.225
		c9.799,0,18.27,5.346,22.9,13.225c2.328,3.954,3.758,8.512,3.758,13.433c0,8.226-3.801,15.483-9.656,20.375
		C715.23,273.619,709.35,276.035,702.854,276.035z"/>
	<path d="M736.739,288.223h-73.485c-5.958,0-10.85-2.246-13.777-6.322c-2.927-4.078-3.491-9.433-1.584-15.078l44.241-131.057
		c2.51-7.441,5.662-9.003,7.863-9.003c2.201,0,5.353,1.562,7.865,9.003l44.162,130.827c1.982,5.875,1.418,11.23-1.509,15.308
		C747.588,285.977,742.696,288.223,736.739,288.223z M699.997,129.316c-1.874,0-3.91,2.716-5.445,7.265l-44.165,130.829
		c-1.711,5.074-1.271,9.61,1.162,13c2.435,3.391,6.591,5.258,11.704,5.258h73.485c5.112,0,9.268-1.867,11.702-5.258
		c2.434-3.39,2.874-7.926,1.24-12.771l-44.239-131.058C703.906,132.032,701.871,129.316,699.997,129.316z M699.997,274.562
		c-6.51,0-12.672-2.275-17.82-6.58c-6.43-5.37-10.117-13.154-10.117-21.355c0-4.909,1.323-9.646,3.931-14.081
		c5.104-8.676,14.079-13.854,24.006-13.854c9.93,0,18.9,5.178,24.003,13.854c2.608,4.432,3.932,9.169,3.932,14.081
		c0,8.201-3.687,15.983-10.114,21.355C712.669,272.286,706.507,274.562,699.997,274.562z M699.997,221.245
		c-9.015,0-17.167,4.708-21.805,12.595c-2.375,4.037-3.579,8.339-3.579,12.787c0,7.442,3.354,14.511,9.2,19.396
		c4.686,3.917,10.282,5.986,16.184,5.986c5.903,0,11.499-2.069,16.183-5.986c5.848-4.884,9.199-11.954,9.199-19.396
		c0-4.449-1.204-8.751-3.58-12.786C717.161,225.954,709.011,221.245,699.997,221.245z"/>
</g>
<g>
	<path fill="#FFFFFF" d="M725.754,235.943c-4.631-7.879-13.102-13.225-22.9-13.225c-9.799,0-18.271,5.346-22.906,13.225
		c-2.327,3.954-3.755,8.512-3.755,13.433c0,8.226,3.802,15.483,9.658,20.375c4.625,3.867,10.502,6.283,17.002,6.283
		c6.496,0,12.377-2.416,17.002-6.283c5.855-4.892,9.656-12.15,9.656-20.375C729.512,244.455,728.082,239.897,725.754,235.943z"/>
	<path d="M699.997,274.562c-6.51,0-12.672-2.275-17.82-6.58c-6.43-5.37-10.117-13.154-10.117-21.355
		c0-4.909,1.323-9.646,3.931-14.081c5.104-8.676,14.079-13.854,24.006-13.854c9.93,0,18.9,5.178,24.003,13.854
		c2.608,4.432,3.932,9.169,3.932,14.081c0,8.201-3.687,15.983-10.114,21.355C712.669,272.286,706.507,274.562,699.997,274.562z
		 M699.997,221.245c-9.015,0-17.167,4.708-21.805,12.595c-2.375,4.037-3.579,8.339-3.579,12.787c0,7.442,3.354,14.511,9.2,19.396
		c4.686,3.917,10.282,5.986,16.184,5.986c5.903,0,11.499-2.069,16.183-5.986c5.848-4.884,9.199-11.954,9.199-19.396
		c0-4.449-1.204-8.751-3.58-12.786C717.161,225.954,709.011,221.245,699.997,221.245z"/>
</g>
<g>
	<polygon fill="#FF9482" points="779.143,220.769 779.143,235.943 779.143,269.752 779.143,283.188 814.254,283.188 
		814.254,220.769 	"/>
	<path d="M811.397,281.715h-35.11c-0.705,0-1.276-0.571-1.276-1.277v-62.419c0-0.706,0.571-1.276,1.276-1.276h35.11
		c0.705,0,1.276,0.571,1.276,1.276v62.419C812.674,281.144,812.103,281.715,811.397,281.715z M777.563,279.162h32.558v-59.867
		h-32.558V279.162z"/>
</g>
<g>
	<polygon fill="#FF9482" points="591.445,220.769 591.445,283.188 626.556,283.188 626.556,269.752 626.556,235.943 
		626.556,220.769 	"/>
	<path d="M623.7,281.715h-35.11c-0.706,0-1.277-0.571-1.277-1.277v-62.419c0-0.706,0.571-1.276,1.277-1.276h35.11
		c0.706,0,1.277,0.571,1.277,1.276v62.419C624.977,281.144,624.406,281.715,623.7,281.715z M589.866,279.162h32.558v-59.867h-32.558
		V279.162z"/>
</g>
<g>
	<path fill="#FFE79D" d="M713.689,327.067h-10.836h-10.839c0,0-27.309,19.508,0,47.467l10.839,10.403l10.836-10.403
		C740.998,346.575,713.689,327.067,713.689,327.067z"/>
	<path d="M699.997,383.464c-0.318,0-0.637-0.118-0.884-0.355l-10.838-10.402c-9.077-9.292-13.25-18.676-12.43-27.917
		c1.173-13.224,12.107-21.178,12.572-21.509c0.216-0.155,0.477-0.238,0.742-0.238h21.674c0.266,0,0.527,0.083,0.741,0.238
		c0.466,0.332,11.399,8.285,12.573,21.509c0.818,9.242-3.354,18.625-12.4,27.89l-10.866,10.43
		C700.634,383.346,700.315,383.464,699.997,383.464z M689.59,325.594c-1.749,1.375-10.253,8.588-11.203,19.445
		c-0.742,8.458,3.19,17.156,11.686,25.853l9.924,9.526l9.952-9.554c8.475-8.677,12.405-17.383,11.654-25.849
		c-0.965-10.875-9.453-18.052-11.199-19.421H689.59z"/>
</g>
<g>
	<line fill="#FFFFFF" x1="693.223" y1="253.398" x2="706.767" y2="239.855"/>
	<path d="M693.223,254.675c-0.327,0-0.653-0.125-0.902-0.375c-0.499-0.498-0.499-1.306,0-1.805l13.544-13.544
		c0.498-0.499,1.306-0.499,1.805,0c0.5,0.499,0.5,1.307,0,1.805l-13.543,13.543C693.876,254.55,693.55,254.675,693.223,254.675z"/>
</g>
<path fill="#B8E4FF" d="M997.939,977c2.851-6.244,4.459-13.171,4.459-20.485c0-27.419-22.229-49.649-49.65-49.649
	c-10.453,0-20.137,3.246-28.138,8.762c-18.66-19.689-44.994-32.036-74.266-32.036c-3.429,0-6.81,0.182-10.15,0.511
	c-10.206-30.921-39.292-53.264-73.633-53.264c-17.07,0-32.804,5.583-45.616,14.922c-11.806-21.818-34.891-36.644-61.442-36.644
	c-29.58,0-54.802,18.426-64.975,44.396c-11.604-4.565-24.206-7.158-37.429-7.158c-35.537,0-66.825,18.116-85.191,45.603
	c-2.59-0.359-5.213-0.608-7.901-0.608c-31.705,0-57.408,25.705-57.408,57.41c0,10.281,2.741,19.902,7.49,28.242H997.939z"/>
<path d="M990.26,979.806H413.426c-0.404,0-0.785-0.191-1.026-0.517c-7.573-10.212-11.578-22.279-11.578-34.895
	c0-32.36,26.326-58.687,58.685-58.687c2.242,0,4.574,0.164,7.286,0.515c19.364-28.513,51.381-45.508,85.807-45.508
	c12.507,0,24.854,2.283,36.715,6.788c11.032-26.788,36.678-44.026,65.689-44.026c25.656,0,49.228,13.775,61.865,36.049
	c13.355-9.379,28.949-14.327,45.193-14.327c33.738,0,63.557,21.325,74.52,53.175c3.142-0.28,6.253-0.421,9.264-0.421
	c28.309,0,54.7,11.231,74.444,31.653c8.328-5.485,17.97-8.379,27.959-8.379c28.081,0,50.928,22.844,50.928,50.925
	c0,9.554-2.71,18.909-7.836,27.057C991.105,979.58,990.697,979.806,990.26,979.806z M414.072,977.252h575.476
	c4.63-7.598,7.074-16.262,7.074-25.101c0-26.671-21.701-48.372-48.374-48.372c-9.833,0-19.311,2.952-27.413,8.535
	c-0.517,0.359-1.219,0.284-1.651-0.172c-19.335-20.401-45.381-31.638-73.339-31.638c-3.251,0-6.623,0.169-10.024,0.504
	c-0.573,0.047-1.151-0.302-1.338-0.87c-10.345-31.333-39.448-52.387-72.421-52.387c-16.177,0-31.69,5.074-44.864,14.678
	c-0.298,0.214-0.673,0.297-1.034,0.212c-0.358-0.081-0.665-0.313-0.841-0.638c-12.007-22.19-35.12-35.975-60.319-35.975
	c-28.377,0-53.415,17.108-63.787,43.584c-0.123,0.317-0.366,0.569-0.678,0.706c-0.309,0.133-0.661,0.141-0.978,0.017
	c-11.923-4.689-24.36-7.069-36.962-7.069c-33.836,0-65.287,16.836-84.13,45.036c-0.27,0.406-0.75,0.632-1.237,0.555
	c-2.934-0.407-5.389-0.596-7.726-0.596c-30.95,0-56.131,25.181-56.131,56.133C403.375,956.247,407.072,967.594,414.072,977.252z"/>
<g>
	<path d="M437.104,863.453c-0.16,0-0.32-0.031-0.478-0.093c-0.654-0.265-0.97-1.007-0.707-1.662l205.043-508.923
		c0.265-0.655,1.009-0.965,1.662-0.707c0.654,0.264,0.97,1.007,0.707,1.661L438.287,862.654
		C438.087,863.15,437.608,863.453,437.104,863.453z"/>
</g>
<g>
	<path d="M962.886,863.453c-0.505,0-0.984-0.303-1.186-0.799L756.659,353.729c-0.263-0.654,0.054-1.397,0.707-1.661
		c0.655-0.26,1.397,0.052,1.662,0.707L964.07,861.698c0.263,0.655-0.055,1.397-0.708,1.662
		C963.206,863.422,963.045,863.453,962.886,863.453z"/>
</g>
<g>
	<g>
		<path d="M677.938,459.738c-0.104,0-0.209-0.012-0.315-0.038c-0.683-0.175-1.096-0.869-0.923-1.553l5.966-23.509
			c0.173-0.686,0.866-1.099,1.552-0.924c0.683,0.175,1.097,0.869,0.923,1.552l-5.966,23.509
			C679.028,459.354,678.507,459.738,677.938,459.738z"/>
	</g>
	<g>
		<path d="M625.801,665.17c-0.104,0-0.21-0.013-0.316-0.039c-0.683-0.174-1.097-0.869-0.924-1.552l12.384-48.789
			c0.172-0.687,0.862-1.096,1.552-0.925c0.683,0.174,1.097,0.869,0.923,1.553l-12.383,48.789
			C626.89,664.785,626.37,665.17,625.801,665.17z M651.869,562.454c-0.104,0-0.209-0.012-0.315-0.038
			c-0.683-0.175-1.097-0.869-0.923-1.553l12.383-48.789c0.172-0.687,0.864-1.095,1.552-0.924c0.683,0.174,1.097,0.868,0.923,1.552
			l-12.383,48.791C652.958,562.071,652.438,562.454,651.869,562.454z"/>
	</g>
	<g>
		<path d="M606.148,742.604c-0.105,0-0.209-0.012-0.315-0.038c-0.684-0.175-1.098-0.869-0.924-1.552l5.967-23.51
			c0.173-0.684,0.868-1.095,1.552-0.924c0.683,0.175,1.096,0.869,0.923,1.552l-5.966,23.51
			C607.238,742.221,606.718,742.604,606.148,742.604z"/>
	</g>
</g>
<g>
	<g>
		<path d="M739.539,524.669c-0.566,0-1.083-0.38-1.234-0.954l-6.12-23.471c-0.179-0.682,0.231-1.379,0.913-1.556
			c0.68-0.172,1.379,0.229,1.559,0.913l6.12,23.469c0.178,0.683-0.231,1.379-0.913,1.558
			C739.755,524.655,739.646,524.669,739.539,524.669z"/>
	</g>
	<g>
		<path d="M781.304,684.789c-0.567,0-1.084-0.381-1.234-0.956l-9.918-38.027c-0.179-0.683,0.231-1.379,0.913-1.558
			c0.676-0.171,1.38,0.231,1.558,0.914l9.919,38.027c0.178,0.683-0.231,1.379-0.914,1.558
			C781.519,684.774,781.41,684.789,781.304,684.789z M760.422,604.729c-0.566,0-1.084-0.382-1.233-0.956l-9.92-38.027
			c-0.178-0.683,0.23-1.378,0.913-1.558c0.674-0.175,1.379,0.23,1.558,0.914l9.919,38.027c0.179,0.683-0.23,1.379-0.913,1.558
			C760.639,604.716,760.529,604.729,760.422,604.729z"/>
	</g>
	<g>
		<path d="M798.389,750.289c-0.567,0-1.086-0.379-1.235-0.955l-6.121-23.469c-0.178-0.682,0.23-1.379,0.914-1.557
			c0.679-0.17,1.378,0.229,1.558,0.913l6.12,23.47c0.18,0.683-0.23,1.379-0.914,1.558
			C798.604,750.275,798.494,750.289,798.389,750.289z"/>
	</g>
</g>
<g>
	<g>
		<path d="M1285.907,362.241H1014.15V127.425h48.254v15.673c0,2.921,2.377,5.297,5.297,5.297s5.297-2.376,5.297-5.297v-15.673
			h154.058v15.673c0,2.921,2.377,5.297,5.297,5.297c2.922,0,5.298-2.376,5.298-5.297v-15.673h48.257V362.241z M1016.702,359.688
			h266.651V129.978h-43.148v13.12c0,4.328-3.523,7.85-7.853,7.85s-7.851-3.522-7.851-7.85v-13.12h-148.95v13.12
			c0,4.328-3.521,7.85-7.851,7.85c-4.328,0-7.85-3.522-7.85-7.85v-13.12h-43.149V359.688z"/>
	</g>
	<g>
		<path d="M1067.701,150.948c-4.328,0-7.85-3.522-7.85-7.85v-36.309c0-4.329,3.521-7.85,7.85-7.85c4.329,0,7.851,3.521,7.851,7.85
			v36.309C1075.552,147.426,1072.03,150.948,1067.701,150.948z M1067.701,101.492c-2.92,0-5.297,2.376-5.297,5.297v36.309
			c0,2.921,2.377,5.297,5.297,5.297s5.297-2.376,5.297-5.297v-36.309C1072.998,103.868,1070.621,101.492,1067.701,101.492z"/>
	</g>
	<g>
		<path d="M1232.353,150.948c-4.329,0-7.851-3.522-7.851-7.85v-36.309c0-4.329,3.521-7.85,7.851-7.85s7.853,3.521,7.853,7.85v36.309
			C1240.205,147.426,1236.682,150.948,1232.353,150.948z M1232.353,101.492c-2.92,0-5.297,2.376-5.297,5.297v36.309
			c0,2.921,2.377,5.297,5.297,5.297c2.922,0,5.298-2.376,5.298-5.297v-36.309C1237.65,103.868,1235.274,101.492,1232.353,101.492z"
			/>
	</g>
	<g>
		<path d="M1061.422,194.524l-32.596-0.07l0.071-32.598l32.598,0.072L1061.422,194.524z M1031.385,191.906l27.49,0.06l0.062-27.489
			l-27.491-0.063L1031.385,191.906z"/>
	</g>
	<g>
		<path d="M1103.368,194.617l-32.594-0.07l0.07-32.595l32.596,0.07L1103.368,194.617z M1073.333,191.999l27.487,0.06l0.063-27.489
			l-27.49-0.06L1073.333,191.999z"/>
	</g>
	<g>
		<path d="M1145.315,194.71l-32.597-0.072l0.072-32.595l32.597,0.072L1145.315,194.71z M1115.276,192.089l27.49,0.063l0.062-27.489
			l-27.488-0.062L1115.276,192.089z"/>
	</g>
	<g>
		<path d="M1187.263,194.805l-32.597-0.072l0.07-32.598l32.6,0.072L1187.263,194.805z M1157.225,192.184l27.49,0.063l0.063-27.491
			l-27.493-0.063L1157.225,192.184z"/>
	</g>
	<g>
		<path d="M1229.212,194.896l-32.599-0.07l0.071-32.595l32.597,0.07L1229.212,194.896z M1199.172,192.278l27.491,0.059l0.06-27.488
			l-27.489-0.06L1199.172,192.278z"/>
	</g>
	<g>
		<path d="M1271.154,194.988l-32.596-0.07l0.074-32.595l32.598,0.07L1271.154,194.988z M1241.116,192.37l27.491,0.06l0.064-27.489
			l-27.492-0.06L1241.116,192.37z"/>
	</g>
	<g>
		<path d="M1061.422,241.214l-32.596-0.071l0.071-32.597l32.598,0.072L1061.422,241.214z M1031.385,238.594l27.49,0.061
			l0.062-27.489l-27.491-0.063L1031.385,238.594z"/>
	</g>
	<g>
		<path d="M1103.368,241.309l-32.594-0.073l0.07-32.597l32.596,0.073L1103.368,241.309z M1073.333,238.688l27.487,0.063
			l0.063-27.491l-27.49-0.063L1073.333,238.688z"/>
	</g>
	<g>
		<path d="M1145.315,241.4l-32.597-0.073l0.072-32.596l32.597,0.075L1145.315,241.4z M1115.276,238.779l27.49,0.063l0.062-27.488
			l-27.488-0.065L1115.276,238.779z"/>
	</g>
	<g>
		<path d="M1187.263,241.494l-32.597-0.072l0.07-32.598l32.6,0.075L1187.263,241.494z M1157.225,238.874l27.49,0.063l0.063-27.488
			l-27.493-0.065L1157.225,238.874z"/>
	</g>
	<g>
		<path d="M1229.212,241.587l-32.599-0.072l0.071-32.598l32.597,0.073L1229.212,241.587z M1199.172,238.968l27.491,0.062
			l0.06-27.492l-27.489-0.062L1199.172,238.968z"/>
	</g>
	<g>
		<path d="M1271.154,241.68l-32.596-0.07l0.074-32.597l32.598,0.072L1271.154,241.68z M1241.116,239.062l27.491,0.06l0.064-27.488
			l-27.492-0.063L1241.116,239.062z"/>
	</g>
	<g>
		<path d="M1061.422,287.902l-32.596-0.07l0.071-32.594l32.598,0.069L1061.422,287.902z M1031.385,285.284l27.49,0.06l0.062-27.488
			l-27.491-0.06L1031.385,285.284z"/>
	</g>
	<g>
		<path d="M1103.368,287.998l-32.594-0.072l0.07-32.596l32.596,0.07L1103.368,287.998z M1073.333,285.377l27.487,0.062l0.063-27.492
			l-27.49-0.06L1073.333,285.377z"/>
	</g>
	<g>
		<path d="M1145.315,288.09l-32.597-0.073l0.072-32.595l32.597,0.07L1145.315,288.09z M1115.276,285.47l27.49,0.062l0.062-27.491
			l-27.488-0.06L1115.276,285.47z"/>
	</g>
	<g>
		<path d="M1187.263,288.186l-32.597-0.075l0.07-32.596l32.6,0.072L1187.263,288.186z M1157.225,285.563l27.49,0.065l0.063-27.492
			l-27.493-0.063L1157.225,285.563z"/>
	</g>
	<g>
		<path d="M1229.212,288.276l-32.599-0.072l0.071-32.595l32.597,0.07L1229.212,288.276z M1199.172,285.656l27.491,0.062l0.06-27.491
			l-27.489-0.06L1199.172,285.656z"/>
	</g>
	<g>
		<path d="M1271.154,288.369l-32.596-0.07l0.074-32.599l32.598,0.071L1271.154,288.369z M1241.116,285.751l27.491,0.06l0.064-27.491
			l-27.492-0.062L1241.116,285.751z"/>
	</g>
	<g>
		<path d="M1061.422,334.594l-32.596-0.07l0.071-32.598l32.598,0.072L1061.422,334.594z M1031.385,331.976l27.49,0.061l0.062-27.49
			l-27.491-0.063L1031.385,331.976z"/>
	</g>
	<g>
		<path d="M1103.368,334.686l-32.594-0.07l0.07-32.597l32.596,0.072L1103.368,334.686z M1073.333,332.068l27.487,0.06l0.063-27.489
			l-27.49-0.062L1073.333,332.068z"/>
	</g>
	<g>
		<path d="M1145.315,334.78l-32.597-0.073l0.072-32.595l32.597,0.072L1145.315,334.78z M1115.276,332.159l27.49,0.062l0.062-27.488
			l-27.488-0.062L1115.276,332.159z"/>
	</g>
	<g>
		<path d="M1187.263,334.874l-32.597-0.072l0.07-32.597l32.6,0.072L1187.263,334.874z M1157.225,332.254l27.49,0.063l0.063-27.491
			l-27.493-0.063L1157.225,332.254z"/>
	</g>
	<g>
		<path d="M1229.212,334.965l-32.599-0.07l0.071-32.598l32.597,0.073L1229.212,334.965z M1199.172,332.347l27.491,0.06l0.06-27.489
			l-27.489-0.063L1199.172,332.347z"/>
	</g>
	<g>
		<path d="M1271.154,335.058l-32.596-0.07l0.074-32.595l32.598,0.07L1271.154,335.058z M1241.116,332.439l27.491,0.06l0.064-27.489
			l-27.492-0.059L1241.116,332.439z"/>
	</g>
</g>
<g>
	<g>
		<path d="M356.804,253.126l-7.386-7.383l19.82-34.332l20.181,34.956h-8.144l-6.52,6.52l-8.856-8.856L356.804,253.126z
			 M352.609,245.321l4.195,4.195l9.096-9.095l8.856,8.856l5.462-5.463h4.777l-15.758-27.296L352.609,245.321z"/>
	</g>
	<g>
		<path d="M387.782,324.178h-83.65l46.607-80.725l6.064,6.063l9.096-9.095l8.856,8.856l5.462-5.463h7.726l23.119,40.04
			L387.782,324.178z M308.556,321.625h77.752l21.808-37.771l-21.646-37.487h-5.195l-6.52,6.52l-8.856-8.856l-9.096,9.095
			l-5.516-5.515L308.556,321.625z"/>
	</g>
	<g>
		<path d="M570.078,324.178H384.833l62.609-108.44h9.203l11.233-11.234l11.894,23.018l6.905-14.833h19.029L570.078,324.178z
			 M389.257,321.625h176.397l-61.421-106.384h-15.927l-8.414,18.072l-12.68-24.534l-9.511,9.511h-8.787L389.257,321.625z"/>
	</g>
	<g>
		<path d="M479.893,233.313l-12.68-24.534l-9.511,9.511h-11.735l31.488-54.538l29.727,51.489h-18.875L479.893,233.313z
			 M467.879,204.503l11.894,23.018l6.905-14.833h16.081l-25.303-43.83l-27.064,46.879h6.254L467.879,204.503z"/>
	</g>
	<g>
		<rect x="476.179" y="137.229" width="2.554" height="29.077"/>
	</g>
	<g>
		<path d="M478.731,142.654h-41.805l11.13-11.489l-11.13-11.489h41.805V142.654z M442.955,140.101h33.223v-17.872h-33.223
			l8.657,8.936L442.955,140.101z"/>
	</g>
</g>
<g>
	<g>
		<path d="M1077.15,607.119l-36.52-36.517h-49.266V432.09h292.064v138.512h-169.763L1077.15,607.119z M993.919,568.05h47.769
			l35.463,35.459l35.459-35.459h168.268V434.644H993.919V568.05z"/>
	</g>
	<g>
		<rect x="1019.036" y="469.948" width="236.726" height="2.554"/>
	</g>
	<g>
		<rect x="1019.036" y="503.008" width="236.726" height="2.552"/>
	</g>
	<g>
		<rect x="1019.036" y="536.065" width="236.726" height="2.553"/>
	</g>
</g>
<g>
	<path d="M227.692,653.105c-0.226,0-0.451-0.032-0.669-0.095c-2.497-0.699-4.69-1.979-6.511-3.801
		c-4.417-4.413-5.19-10.476-5.264-11.153l-1.921-42.442l-44.98-39.962l-15.448,25.313c2.226,2.43,3.445,5.56,3.445,8.882
		c0,3.516-1.366,6.822-3.846,9.307c-3.204,3.197-8.336,4.54-12.742,3.358l-17.305,28.363c-0.618,1.007-2.008,1.448-3.1,0.976
		c-1.796-0.791-3.377-1.862-4.704-3.187c-4.393-4.391-4.444-10.066-4.444-10.307c0-0.263,0.043-0.528,0.128-0.787l10.679-31.286
		l-3.396-3.398c-2.482-2.485-3.848-5.791-3.848-9.307c0-3.518,1.365-6.822,3.845-9.307c3.167-3.163,7.78-4.492,12.116-3.529
		l10.781-31.602l-28.046-28.043c-7.774-7.78-11.716-15.542-11.716-23.068c0-6.974,3.48-11.213,3.877-11.673
		c0.572-0.527,4.782-4.117,11.905-4.117c7.527,0,15.287,3.942,23.063,11.716l28.053,28.05l31.602-10.78
		c-0.214-0.958-0.319-1.913-0.319-2.874c0-3.475,1.365-6.757,3.845-9.242c2.485-2.482,5.791-3.848,9.31-3.848
		s6.824,1.367,9.305,3.849l3.396,3.397l31.276-10.677c0.284-0.088,0.541-0.128,0.797-0.128c0.239,0,5.926,0.05,10.313,4.438
		c1.317,1.317,2.39,2.898,3.185,4.697c0.137,0.3,0.21,0.642,0.21,0.997c0,0.863-0.458,1.673-1.192,2.118l-28.358,17.301
		c0.308,1.132,0.461,2.283,0.461,3.453c0,3.472-1.393,6.855-3.822,9.283c-2.481,2.482-5.786,3.851-9.305,3.851
		c-3.322,0-6.454-1.22-8.882-3.446l-25.312,15.443l39.965,44.98l42.287,1.915c1.208,0.135,7.019,0.987,11.305,5.271
		c1.831,1.833,3.11,4.027,3.805,6.521c0.06,0.209,0.09,0.434,0.09,0.665c0,1.079-0.719,2.05-1.75,2.364l-36.016,10.782
		c0.813,2.116,1.745,5.251,1.745,8.524c0,0.882-0.065,1.729-0.198,2.528l3.792,3.792c0.47,0.473,0.727,1.094,0.727,1.748
		c0,0.661-0.258,1.282-0.727,1.748c-0.443,0.448-1.081,0.708-1.744,0.708l0,0c-0.662,0-1.3-0.26-1.75-0.714l-3.795-3.795
		c-3.926,0.642-8.405-0.527-11.042-1.544l-10.785,36.01C229.745,652.384,228.771,653.105,227.692,653.105z M167.759,551.716
		l48.069,42.706l1.965,43.439c0.019,0.152,0.661,5.682,4.524,9.544c1.49,1.489,3.281,2.542,5.325,3.128l11.58-38.665l1.322,0.582
		c1.798,0.793,5.246,2.076,8.839,2.076c0.928,0,1.812-0.091,2.629-0.267l0.644-0.138l0.094-0.529
		c0.192-0.891,0.282-1.781,0.282-2.728c0-3.574-1.287-7.027-2.053-8.768l-0.583-1.322l1.36-0.476l37.361-11.185
		c-0.636-1.966-1.696-3.785-3.212-5.302c-3.763-3.763-9.103-4.465-9.7-4.534l-43.277-1.957l-42.71-48.069l29.622-18.074l1.01,1.011
		c2,1.999,4.664,3.101,7.5,3.101c2.838,0,5.5-1.102,7.5-3.101c1.954-1.954,3.074-4.681,3.074-7.479c0-1.217-0.206-2.411-0.611-3.551
		l-0.347-0.978l0.869-0.587l29.214-17.822c-0.697-1.41-1.59-2.73-2.684-3.825c-3.648-3.648-8.312-3.69-8.508-3.69l-32.753,11.181
		l-4.52-4.521c-2-2-4.663-3.102-7.5-3.102s-5.503,1.101-7.503,3.099c-1.998,2.002-3.098,4.644-3.098,7.438
		c0,1.102,0.171,2.195,0.509,3.247l0.383,1.194l-1.167,0.462l-34.242,11.681l-29.177-29.175
		c-7.28-7.277-14.432-10.968-21.258-10.968c-6.28,0-9.933,3.21-10.086,3.347c-0.018,0.036-3.143,3.734-3.143,9.89
		c0,6.826,3.69,13.979,10.968,21.263l29.171,29.168l-12.085,35.424l-1.19-0.378c-3.941-1.263-7.969-0.205-10.745,2.569
		c-1.997,2.002-3.098,4.667-3.098,7.503c0,2.834,1.101,5.5,3.102,7.504l4.519,4.52l-11.188,32.776
		c0.004,0.176,0.046,4.827,3.7,8.479c1.102,1.101,2.421,1.993,3.922,2.655l18.246-30.042l0.958,0.313
		c3.969,1.404,8.36,0.312,11.114-2.436c1.997-2.002,3.098-4.666,3.098-7.501c0-2.837-1.102-5.501-3.104-7.502l-1.007-1.007
		L167.759,551.716z"/>
</g>
<g>
	<g>
		<path d="M197.705,896.004c-0.631,0-1.145-0.519-1.145-1.154V690.692c0-0.629,0.514-1.141,1.145-1.141h103.188l0.352,0.051
			c0.596,0.173,0.695,0.244,0.738,0.287l45.521,45.51c0.026,0.028,0.096,0.118,0.197,0.337c0.065,0.212,0.083,0.31,0.092,0.402
			l0.026,0.305l0.022,158.406c0,0.636-0.517,1.154-1.152,1.154H197.705z M198.863,893.705h146.682V737.357h-44.379
			c-0.642,0-1.146-0.501-1.146-1.141v-44.363H198.863V893.705z M302.313,735.062h41.598l-41.598-41.582V735.062z"/>
	</g>
</g>
<g>
	<g>
		<path d="M1228.604,845.174h-46.516V659.467h46.516c29.906,0,54.238,24.33,54.238,54.236v77.234
			C1282.842,820.844,1258.51,845.174,1228.604,845.174z M1184.641,842.621h43.963c28.5,0,51.686-23.185,51.686-51.684v-77.234
			c0-28.499-23.186-51.684-51.686-51.684h-43.963V842.621z"/>
	</g>
	<g>
		<rect x="1198.448" y="713.528" width="20.595" height="2.553"/>
	</g>
	<g>
		<rect x="1231.919" y="713.528" width="20.596" height="2.553"/>
	</g>
	<g>
		<rect x="1198.448" y="733.025" width="20.595" height="2.554"/>
	</g>
	<g>
		<rect x="1231.919" y="733.025" width="20.596" height="2.554"/>
	</g>
	<g>
		<rect x="1198.448" y="752.521" width="20.595" height="2.553"/>
	</g>
	<g>
		<rect x="1231.919" y="752.521" width="20.596" height="2.553"/>
	</g>
	<g>
		<rect x="1198.448" y="772.014" width="20.595" height="2.553"/>
	</g>
	<g>
		<rect x="1231.919" y="772.014" width="20.596" height="2.553"/>
	</g>
	<g>
		<rect x="1198.448" y="791.501" width="20.595" height="2.554"/>
	</g>
	<g>
		<rect x="1231.919" y="791.501" width="20.596" height="2.554"/>
	</g>
	<g>
		<rect x="1198.448" y="810.998" width="20.595" height="2.554"/>
	</g>
	<g>
		<rect x="1231.919" y="810.998" width="20.596" height="2.554"/>
	</g>
	<g>
		<path d="M1253.79,703.946h-56.617v-20.938h56.617V703.946z M1199.727,701.394h51.51v-15.833h-51.51V701.394z"/>
	</g>
	<g>
		<path d="M1102.084,908.808c-28.893,0-52.397-23.505-52.397-52.396v-88.267c0-22.181,14.092-42.036,35.063-49.408l1.7-0.597v72.798
			c0,19.748,11.552,38.039,29.429,46.598l0.725,0.348v23.126h37.673l-0.165,1.421
			C1151.087,888.871,1128.719,908.808,1102.084,908.808z M1083.896,721.777c-19.008,7.466-31.656,25.874-31.656,46.367v88.267
			c0,27.483,22.359,49.844,49.844,49.844c24.856,0,45.807-18.253,49.31-42.692h-37.343v-24.078
			c-18.346-9.123-30.154-28.09-30.154-48.547V721.777z"/>
	</g>
	<g>
		<path d="M1116.604,840.715l-1.826-0.876c-18.759-8.981-30.881-28.176-30.881-48.901v-77.234c0-20.728,12.122-39.921,30.881-48.898
			l1.826-0.874V840.715z M1114.051,668.028c-16.833,8.898-27.601,26.606-27.601,45.675v77.234c0,19.067,10.768,36.775,27.601,45.677
			V668.028z"/>
	</g>
	<g>
		<path d="M1184.641,863.563h-70.59v-229.1h70.59V863.563z M1116.604,861.009h65.484V637.018h-65.484V861.009z"/>
	</g>
</g>
<g>
	<g>
		<path d="M997.347,712.653c-1.461,0-2.91-0.063-4.311-0.188l-3.325-0.297l0.234-3.335c0.096-1.329-0.027-2.61-0.362-3.809
			c-1.332-4.863-5.775-8.254-10.808-8.254c-1.013,0-2.02,0.14-2.995,0.411c-2.067,0.571-3.911,1.715-5.339,3.308l-2.228,2.49
			l-2.528-2.181c-3.371-2.921-6.325-6.297-8.776-10.034l-1.821-2.767l2.723-1.89c3.921-2.712,5.703-7.614,4.438-12.197
			s-5.313-7.883-10.07-8.212l-3.298-0.229l0.136-3.305c0.188-4.425,0.981-8.787,2.357-12.965l1.045-3.182l3.2,0.997
			c2.052,0.649,4.278,0.688,6.354,0.12c2.888-0.794,5.294-2.666,6.771-5.271c1.481-2.617,1.857-5.651,1.058-8.543
			c-0.345-1.248-0.918-2.443-1.705-3.552l-1.938-2.736l2.702-1.979c3.611-2.646,7.599-4.771,11.849-6.317l3.096-1.127l1.222,3.059
			c1.687,4.206,5.866,7.031,10.399,7.031c1.014,0,2.021-0.137,2.993-0.407c3.706-1.022,6.596-3.836,7.734-7.528l0.966-3.148
			l3.175,0.873c4.211,1.148,8.277,2.894,12.088,5.186l2.843,1.705l-1.638,2.885c-1.455,2.584-1.818,5.595-1.021,8.473
			c1.338,4.854,5.778,8.244,10.794,8.244c1.019,0,2.022-0.137,2.989-0.408c0.389-0.103,0.734-0.22,1.178-0.398l3.091-1.258
			l1.31,3.082c0.862,2.034,1.607,4.143,2.213,6.265c0.595,2.161,1.029,4.323,1.331,6.622l0.436,3.263l-3.249,0.538
			c-0.46,0.074-0.857,0.165-1.234,0.265c-2.888,0.799-5.298,2.681-6.773,5.294c-1.475,2.606-1.846,5.626-1.046,8.502
			c0.781,2.873,2.641,5.27,5.238,6.762l2.856,1.648l-1.555,2.906c-2.066,3.861-4.66,7.441-7.713,10.643l-2.29,2.402l-2.46-2.23
			c-2.774-2.528-6.832-3.5-10.495-2.51c-5.508,1.527-8.98,6.93-8.075,12.565l0.527,3.282l-3.264,0.607
			C1003.406,712.374,1000.37,712.653,997.347,712.653z M992.433,709.847l0.832,0.074c4.063,0.367,8.471,0.168,12.644-0.606
			l0.815-0.152l-0.133-0.822c-1.113-6.922,3.151-13.557,9.922-15.432c4.508-1.224,9.478-0.023,12.886,3.081l0.613,0.556l0.572-0.601
			c2.893-3.032,5.352-6.427,7.309-10.086l0.389-0.725l-0.711-0.412c-3.186-1.827-5.47-4.773-6.426-8.296
			c-0.983-3.527-0.527-7.236,1.282-10.438c1.812-3.207,4.771-5.517,8.331-6.5c0.464-0.124,0.943-0.232,1.488-0.319l0.804-0.134
			l-0.109-0.814c-0.286-2.183-0.698-4.231-1.259-6.266c-0.574-2.011-1.282-4.02-2.104-5.959l-0.325-0.766l-0.771,0.313
			c-0.563,0.227-0.999,0.373-1.461,0.494c-1.171,0.329-2.409,0.5-3.66,0.5c-6.161,0-11.612-4.161-13.256-10.118
			c-0.978-3.532-0.531-7.229,1.261-10.409l0.408-0.722l-0.705-0.423c-3.611-2.173-7.462-3.826-11.448-4.912l-0.788-0.216
			l-0.239,0.779c-1.397,4.529-4.945,7.982-9.491,9.239c-1.193,0.331-2.431,0.499-3.676,0.499c-5.567,0-10.698-3.471-12.77-8.636
			l-0.305-0.761l-0.77,0.279c-4.023,1.464-7.797,3.476-11.213,5.978l-0.675,0.495l0.483,0.682c0.96,1.352,1.663,2.815,2.083,4.353
			c0.983,3.545,0.522,7.269-1.295,10.479c-1.816,3.2-4.77,5.5-8.316,6.475c-2.551,0.697-5.286,0.646-7.795-0.145l-0.796-0.248
			L953.798,650c-1.304,3.955-2.055,8.084-2.231,12.272l-0.033,0.822l0.82,0.057c5.836,0.403,10.803,4.455,12.355,10.079
			c1.553,5.63-0.633,11.647-5.443,14.976l-0.675,0.469l0.45,0.688c2.325,3.542,5.122,6.739,8.314,9.505l0.627,0.541l0.556-0.622
			c1.756-1.958,4.023-3.363,6.558-4.063c1.194-0.334,2.434-0.505,3.68-0.505c6.179,0,11.634,4.164,13.27,10.124
			c0.412,1.476,0.564,3.051,0.446,4.673L992.433,709.847z"/>
	</g>
	<g>
		<path d="M997.345,691.476c-14.725,0-26.702-11.978-26.702-26.699c0-14.723,11.978-26.7,26.702-26.7
			c14.721,0,26.696,11.978,26.696,26.7C1024.041,679.498,1012.065,691.476,997.345,691.476z M997.345,640.629
			c-13.316,0-24.15,10.832-24.15,24.147c0,13.314,10.834,24.146,24.15,24.146c13.312,0,24.143-10.831,24.143-24.146
			C1021.487,651.461,1010.656,640.629,997.345,640.629z"/>
	</g>
</g>
<g>
	<g>
		<path d="M418.028,725.774c-27.024,0-49.01-21.987-49.01-49.012c0-27.025,21.986-49.011,49.01-49.011
			c27.025,0,49.011,21.985,49.011,49.011C467.039,703.787,445.053,725.774,418.028,725.774z M418.028,630.305
			c-25.617,0-46.458,20.84-46.458,46.458c0,25.616,20.841,46.458,46.458,46.458c25.618,0,46.458-20.842,46.458-46.458
			C464.485,651.145,443.646,630.305,418.028,630.305z"/>
	</g>
	<g>
		<polygon points="415.487,703.03 390.125,677.664 391.93,675.859 415.487,699.42 449.958,664.95 451.764,666.754 		"/>
	</g>
</g>
<g>
	<g>
		<g>
			<path d="M307.62,160.508h-51.913v-27.661c0-1.571,0.157-3.199,0.468-4.839c2.311-12.235,13.031-21.116,25.489-21.116
				c14.313,0,25.957,11.644,25.957,25.955V160.508z M258.261,157.955h46.806v-25.107c0-12.904-10.5-23.402-23.403-23.402
				c-11.231,0-20.896,8.006-22.98,19.036c-0.281,1.485-0.422,2.953-0.422,4.366V157.955z"/>
		</g>
		<g>
			<path d="M233.194,410.716c-14.313,0-25.957-11.645-25.957-25.956v-25.107h-97.829V132.848c0-14.312,11.644-25.955,25.957-25.955
				h146.298v2.553c-11.231,0-20.896,8.006-22.98,19.036c-0.281,1.485-0.422,2.953-0.422,4.366v25.107h0.89V384.76
				c0,1.571-0.157,3.2-0.468,4.84C256.372,401.835,245.652,410.716,233.194,410.716z M111.961,357.1h97.829v27.66
				c0,12.904,10.5,23.402,23.404,23.402c11.23,0,20.896-8.006,22.98-19.036c0.28-1.484,0.422-2.954,0.422-4.366V160.508h-0.89
				v-27.661c0-1.571,0.157-3.199,0.468-4.839c1.571-8.315,7.025-15.081,14.269-18.563H135.365
				c-12.905,0-23.404,10.498-23.404,23.402V357.1z"/>
		</g>
		<g>
			<path d="M233.194,410.716l-149.08-0.09c-13.593-0.964-24.066-12.095-24.066-25.866V357.1h149.742v27.66
				c0,12.904,10.5,23.402,23.404,23.402V410.716z M86.621,408.162h135.352c-8.709-4.192-14.735-13.107-14.735-23.402v-25.107H62.602
				v25.107c0,12.791,10.024,23.058,22.821,23.373L86.621,408.162z"/>
		</g>
	</g>
	<g>
		<rect x="132.131" y="187.635" width="104.468" height="2.553"/>
	</g>
	<g>
		<rect x="132.131" y="219.958" width="104.468" height="2.553"/>
	</g>
	<g>
		<rect x="132.131" y="252.281" width="104.468" height="2.553"/>
	</g>
	<g>
		<rect x="132.131" y="284.604" width="104.468" height="2.553"/>
	</g>
	<g>
		<rect x="132.131" y="316.928" width="104.468" height="2.553"/>
	</g>
</g>
<g>
	<g>
		<g>
			<path fill="#FFFFFF" d="M275.053,804.293c-0.01-0.551-0.015-1.103-0.042-1.648c-0.022-0.551-0.066-1.092-0.107-1.641
				c-0.025-0.271-0.037-0.549-0.063-0.821c-0.068-0.767-0.16-1.53-0.264-2.291c-0.002-0.042-0.005-0.069-0.012-0.107
				c-0.723-5.274-2.214-10.294-4.36-14.954c-0.04-0.097-0.085-0.196-0.128-0.289c-0.284-0.603-0.579-1.195-0.886-1.789
				c-0.11-0.222-0.219-0.444-0.336-0.664c-0.247-0.459-0.504-0.918-0.763-1.371c-0.183-0.329-0.367-0.654-0.559-0.974
				c-0.214-0.351-0.434-0.695-0.649-1.04c-0.25-0.402-0.503-0.802-0.767-1.195c-0.185-0.28-0.378-0.554-0.571-0.824
				c-0.302-0.436-0.604-0.87-0.923-1.295c-0.18-0.248-0.372-0.493-0.563-0.734c-0.329-0.432-0.657-0.86-1-1.273
				c-0.214-0.267-0.441-0.521-0.661-0.782c-0.318-0.377-0.638-0.752-0.967-1.115c-0.288-0.321-0.584-0.637-0.882-0.945
				c-0.268-0.287-0.534-0.571-0.808-0.852c-0.4-0.404-0.809-0.796-1.219-1.185c-0.18-0.168-0.352-0.342-0.532-0.51
				c-0.539-0.498-1.09-0.982-1.649-1.459c-0.055-0.049-0.109-0.094-0.159-0.138c-9.278-7.849-21.264-12.583-34.37-12.583
				c-4.153,0-8.191,0.491-12.071,1.392c-0.092,0.016-0.181,0.026-0.274,0.055c-0.091,0.02-0.177,0.045-0.271,0.068
				c-0.637,0.154-1.273,0.329-1.905,0.503c-0.242,0.067-0.486,0.142-0.729,0.212c-0.567,0.168-1.131,0.348-1.688,0.542
				c-0.322,0.103-0.638,0.206-0.953,0.321c-0.435,0.151-0.861,0.318-1.29,0.483c-0.44,0.164-0.879,0.336-1.313,0.516
				c-0.26,0.109-0.514,0.226-0.769,0.338c-0.597,0.258-1.189,0.519-1.767,0.795c-0.065,0.032-0.126,0.065-0.186,0.099
				c-20.764,10.025-33.022,32.674-29.417,55.992c0.002,0.045,0.014,0.081,0.016,0.128c0.124,0.767,0.259,1.534,0.411,2.301
				c0.047,0.223,0.096,0.44,0.146,0.661c0.083,0.396,0.152,0.792,0.246,1.182c0.054,0.215,0.116,0.425,0.171,0.638
				c0.084,0.331,0.174,0.654,0.259,0.976c0.138,0.521,0.284,1.044,0.44,1.554c0.105,0.347,0.221,0.688,0.332,1.029
				c0.166,0.509,0.327,1.013,0.509,1.508c0.11,0.304,0.223,0.597,0.336,0.894c0.208,0.544,0.419,1.085,0.639,1.622
				c0.092,0.209,0.183,0.417,0.274,0.628c0.267,0.612,0.542,1.226,0.828,1.831c0.048,0.096,0.103,0.199,0.152,0.304
				c2.625,5.397,6.102,10.223,10.226,14.34c0.006,0,0.01,0.006,0.013,0.01c0.578,0.576,1.172,1.144,1.775,1.694
				c0.215,0.196,0.437,0.379,0.657,0.572c0.396,0.353,0.794,0.702,1.201,1.044c0.477,0.396,0.965,0.777,1.458,1.156
				c0.154,0.12,0.31,0.248,0.47,0.37c5.347,4.043,11.485,7.097,18.139,8.894c0.044,0.011,0.086,0.029,0.127,0.039
				c0.661,0.177,1.328,0.336,1.998,0.486c0.218,0.051,0.434,0.104,0.65,0.153c0.513,0.107,1.032,0.204,1.552,0.303
				c0.385,0.066,0.763,0.14,1.147,0.201c0.387,0.062,0.771,0.114,1.161,0.164c0.528,0.071,1.051,0.145,1.58,0.2
				c0.286,0.033,0.568,0.056,0.85,0.08c0.629,0.058,1.254,0.106,1.888,0.145c0.234,0.017,0.467,0.021,0.703,0.034
				c0.664,0.025,1.328,0.045,1.994,0.048c0.093,0.003,0.189,0.007,0.286,0.007c0.17,0,0.337-0.01,0.503-0.017
				c0.602-0.004,1.208-0.02,1.81-0.038c0.387-0.018,0.767-0.046,1.147-0.072c0.454-0.029,0.904-0.058,1.359-0.104
				c0.555-0.047,1.107-0.107,1.661-0.177c0.268-0.035,0.534-0.067,0.802-0.103c0.739-0.103,1.475-0.22,2.204-0.351
				c0.091-0.017,0.183-0.032,0.269-0.045c21.434-3.972,38.357-20.767,42.512-42.128c0.011-0.055,0.018-0.109,0.029-0.159
				c0.142-0.743,0.27-1.482,0.384-2.234c0.047-0.335,0.083-0.672,0.124-1.01c0.065-0.484,0.135-0.965,0.186-1.454
				c0.088-0.869,0.153-1.739,0.195-2.618c0.004-0.036,0.004-0.067,0.006-0.104c0.043-0.834,0.063-1.678,0.063-2.522
				c0-0.038,0.002-0.083,0.002-0.126C275.071,804.804,275.058,804.55,275.053,804.293z"/>
			<path d="M221.814,859.598l-0.255-0.005c-0.718-0.005-1.396-0.023-2.075-0.051l-0.742-0.033c-0.636-0.04-1.272-0.089-1.915-0.147
				l-0.879-0.085c-0.459-0.048-0.926-0.109-1.396-0.174c-0.604-0.081-1.001-0.135-1.398-0.197l-1.168-0.205
				c-0.543-0.102-1.072-0.201-1.596-0.312l-0.476-0.11c-0.876-0.2-1.561-0.362-2.238-0.543c-6.873-1.862-13.122-4.926-18.706-9.148
				l-0.477-0.374c-0.507-0.394-1.008-0.782-1.497-1.188c-0.421-0.355-0.828-0.713-1.232-1.072l-0.674-0.588
				c-0.487-0.445-0.971-0.902-1.445-1.368h-0.007l-0.374-0.372c-4.294-4.288-7.819-9.228-10.473-14.686l-0.158-0.317
				c-0.292-0.618-0.572-1.241-0.844-1.865l-0.272-0.623c-0.237-0.579-0.453-1.129-0.663-1.685l-0.344-0.911
				c-0.162-0.442-0.311-0.898-0.46-1.358l-0.403-1.247c-0.158-0.517-0.308-1.056-0.451-1.592l-0.435-1.634
				c-0.066-0.276-0.12-0.544-0.172-0.814l-0.23-1.078c-0.157-0.792-0.295-1.572-0.421-2.355l-0.03-0.26
				c-3.613-23.321,8.775-46.899,30.137-57.213c0.78-0.384,1.387-0.652,2-0.916l0.784-0.345c0.449-0.186,0.903-0.363,1.356-0.533
				c0.56-0.215,0.937-0.36,1.321-0.491c0.307-0.116,0.64-0.225,0.978-0.334c0.549-0.19,1.131-0.375,1.717-0.549l0.749-0.219
				c0.648-0.179,1.296-0.354,1.947-0.513l0.576-0.131c4.049-0.941,8.207-1.419,12.34-1.419c12.872,0,25.372,4.574,35.193,12.883
				c0.736,0.631,1.299,1.125,1.852,1.636l0.537,0.515c0.426,0.404,0.845,0.804,1.255,1.219l0.832,0.877
				c0.295,0.307,0.602,0.634,0.9,0.967c0.333,0.366,0.663,0.754,0.991,1.142l0.681,0.808c0.342,0.41,0.679,0.853,1.02,1.299
				c0.19,0.239,0.392,0.496,0.583,0.76c0.315,0.419,0.627,0.866,0.938,1.316c0.193,0.268,0.395,0.555,0.588,0.849
				c0.266,0.396,0.526,0.809,0.784,1.223l0.654,1.049c0.205,0.339,0.396,0.677,0.586,1.019c0.257,0.452,0.52,0.92,0.771,1.389
				l0.303,0.595c0.356,0.693,0.659,1.3,0.949,1.916l0.153,0.344c2.215,4.813,3.717,9.966,4.445,15.271
				c0.119,0.891,0.213,1.674,0.282,2.462l0.064,0.814c0.053,0.716,0.091,1.208,0.111,1.705c0.022,0.45,0.031,0.915,0.038,1.38
				l0.023,1.091c-0.002,0.993-0.022,1.859-0.066,2.716c-0.049,0.999-0.115,1.891-0.207,2.783c-0.042,0.401-0.095,0.794-0.149,1.186
				l-0.166,1.324c-0.12,0.784-0.25,1.541-0.395,2.3c-4.263,21.926-21.758,39.261-43.562,43.302l-0.274,0.046
				c-0.747,0.136-1.498,0.253-2.255,0.358l-0.815,0.104c-0.577,0.071-1.146,0.134-1.717,0.183c-0.451,0.047-0.917,0.077-1.389,0.107
				c-0.5,0.034-0.834,0.058-1.173,0.071c-0.625,0.02-1.242,0.036-1.855,0.039L221.814,859.598z M185.169,841.915
				c0.537,0.533,1.087,1.056,1.647,1.567l0.637,0.556c0.394,0.35,0.783,0.693,1.181,1.027c0.46,0.38,0.936,0.752,1.417,1.123
				l0.465,0.367c5.316,4.019,11.271,6.938,17.696,8.674c0.769,0.212,1.418,0.365,2.072,0.514l0.649,0.15
				c0.489,0.104,0.998,0.198,1.508,0.293l1.113,0.197c0.374,0.059,0.748,0.109,1.126,0.159c0.66,0.089,1.101,0.148,1.546,0.195
				l0.591,0.059c0.86,0.078,1.472,0.125,2.092,0.163l0.693,0.031c0.634,0.024,1.282,0.043,1.934,0.047l0.278,1.284v-1.277
				l0.315-0.011c0.771-0.01,1.367-0.025,1.957-0.045c0.302-0.012,0.613-0.033,0.921-0.056c0.625-0.039,1.058-0.066,1.497-0.111
				c0.559-0.048,1.095-0.108,1.632-0.174l0.795-0.101c0.709-0.101,1.429-0.214,2.141-0.344l0.316-0.052
				c20.73-3.843,37.405-20.365,41.44-41.107c0.167-0.883,0.293-1.606,0.405-2.343l0.163-1.301c0.049-0.366,0.099-0.732,0.14-1.103
				c0.084-0.843,0.148-1.69,0.188-2.545c0.049-0.923,0.068-1.744,0.068-2.566l-0.021-1.174c-0.007-0.436-0.014-0.873-0.036-1.306
				c-0.019-0.482-0.054-0.943-0.09-1.408l-0.076-0.995c-0.067-0.756-0.157-1.501-0.258-2.24c-0.706-5.164-2.137-10.073-4.266-14.701
				l-0.126-0.282c-0.275-0.582-0.562-1.162-0.861-1.74l-0.329-0.652c-0.24-0.446-0.494-0.896-0.747-1.34
				c-0.182-0.327-0.357-0.641-0.542-0.947l-0.638-1.021c-0.244-0.394-0.49-0.782-0.746-1.162c-0.181-0.276-0.365-0.535-0.548-0.793
				c-0.303-0.436-0.595-0.858-0.905-1.269c-0.184-0.253-0.366-0.484-0.545-0.713c-0.33-0.433-0.648-0.848-0.98-1.248l-0.657-0.777
				c-0.304-0.362-0.614-0.725-0.932-1.076c-0.286-0.317-0.572-0.622-0.859-0.921l-0.801-0.846c-0.384-0.388-0.783-0.769-1.183-1.148
				l-0.523-0.502c-0.523-0.483-1.062-0.956-1.606-1.42c-12.574-10.642-29.521-14.766-45.482-11.059l-0.291,0.059
				c-0.867,0.214-1.49,0.385-2.108,0.555l-0.503,0.146c-0.752,0.223-1.296,0.396-1.837,0.582c-0.331,0.107-0.63,0.207-0.927,0.315
				c-0.38,0.132-0.731,0.267-1.081,0.401c-0.63,0.238-1.054,0.402-1.474,0.577l-0.746,0.33c-0.589,0.254-1.166,0.507-1.728,0.775
				c-20.542,9.929-32.348,32.4-28.894,54.746l0.03,0.255c0.106,0.616,0.239,1.368,0.388,2.119l0.233,1.093
				c0.046,0.234,0.092,0.469,0.148,0.701l0.422,1.586c0.133,0.504,0.275,1.011,0.426,1.504l0.325,1.011
				c0.201,0.617,0.339,1.042,0.492,1.461l0.276,0.733c0.259,0.681,0.467,1.214,0.683,1.741l0.266,0.607
				c0.259,0.594,0.53,1.194,0.809,1.789l-1.002,0.848l1.148-0.56c2.454,5.044,5.685,9.624,9.61,13.622h0.156L185.169,841.915z"/>
		</g>
		<g>
			<path fill="#FFFFFF" d="M221.814,732.988c-39.8,0-72.061,32.283-72.061,72.073c0,15.127,4.667,29.152,12.645,40.744
				l-59.97,59.944c-8.898,11.283,0,20.425,0,20.425c1.166,1.135,2.325,1.991,3.476,2.674c9.116,5.435,17.427-1.724,17.427-1.724
				l60.701-60.697c0.142,0.094,0.302,0.169,0.455,0.263c10.898,6.601,23.658,10.429,37.328,10.429
				c39.806,0,72.067-32.273,72.067-72.058C293.881,765.271,261.62,732.988,221.814,732.988z M275.005,807.71
				c-0.001,0.036-0.001,0.067-0.006,0.104c-0.042,0.879-0.106,1.749-0.195,2.618c-0.051,0.489-0.121,0.97-0.186,1.454
				c-0.041,0.338-0.077,0.675-0.124,1.01c-0.114,0.752-0.242,1.491-0.384,2.234c-0.012,0.05-0.018,0.104-0.029,0.159
				c-4.155,21.361-21.079,38.156-42.512,42.128c-0.086,0.013-0.178,0.028-0.269,0.045c-0.729,0.131-1.465,0.248-2.204,0.351
				c-0.268,0.035-0.535,0.067-0.802,0.103c-0.554,0.069-1.106,0.13-1.661,0.177c-0.455,0.046-0.905,0.074-1.359,0.104
				c-0.38,0.026-0.76,0.055-1.147,0.072c-0.602,0.019-1.208,0.034-1.81,0.038c-0.166,0.007-0.333,0.017-0.503,0.017
				c-0.097,0-0.193-0.004-0.286-0.007c-0.666-0.003-1.33-0.022-1.994-0.048c-0.236-0.014-0.469-0.018-0.703-0.034
				c-0.633-0.038-1.258-0.087-1.888-0.145c-0.282-0.024-0.564-0.047-0.85-0.08c-0.529-0.056-1.052-0.129-1.58-0.2
				c-0.389-0.05-0.773-0.103-1.161-0.164c-0.384-0.062-0.762-0.135-1.147-0.201c-0.52-0.099-1.039-0.195-1.552-0.303
				c-0.217-0.05-0.433-0.103-0.65-0.153c-0.67-0.15-1.337-0.31-1.998-0.486c-0.041-0.01-0.083-0.028-0.127-0.039
				c-6.653-1.797-12.792-4.851-18.139-8.894c-0.16-0.122-0.315-0.25-0.47-0.37c-0.493-0.379-0.981-0.76-1.458-1.156
				c-0.407-0.342-0.805-0.691-1.201-1.044c-0.221-0.193-0.442-0.376-0.657-0.572c-0.603-0.551-1.197-1.118-1.775-1.694
				c-0.002-0.004-0.006-0.01-0.013-0.01c-4.124-4.117-7.601-8.942-10.226-14.34c-0.05-0.104-0.104-0.208-0.152-0.304
				c-0.285-0.605-0.561-1.219-0.828-1.831c-0.091-0.211-0.182-0.419-0.274-0.628c-0.22-0.537-0.431-1.078-0.639-1.622
				c-0.113-0.297-0.226-0.59-0.336-0.894c-0.182-0.495-0.343-0.999-0.509-1.508c-0.11-0.341-0.227-0.683-0.332-1.029
				c-0.156-0.51-0.302-1.032-0.44-1.554c-0.085-0.321-0.175-0.645-0.259-0.976c-0.055-0.213-0.117-0.423-0.171-0.638
				c-0.094-0.39-0.162-0.786-0.246-1.182c-0.05-0.221-0.099-0.438-0.146-0.661c-0.152-0.767-0.288-1.534-0.411-2.301
				c-0.002-0.047-0.014-0.083-0.016-0.128c-3.605-23.318,8.653-45.967,29.417-55.992c0.06-0.033,0.121-0.066,0.186-0.099
				c0.577-0.276,1.169-0.537,1.767-0.795c0.255-0.112,0.509-0.229,0.769-0.338c0.434-0.18,0.873-0.352,1.313-0.516
				c0.429-0.165,0.855-0.332,1.29-0.483c0.315-0.115,0.631-0.219,0.953-0.321c0.557-0.194,1.121-0.374,1.688-0.542
				c0.243-0.07,0.487-0.145,0.729-0.212c0.632-0.174,1.269-0.349,1.905-0.503c0.094-0.023,0.179-0.049,0.271-0.068
				c0.093-0.028,0.182-0.039,0.274-0.055c3.88-0.9,7.917-1.392,12.071-1.392c13.106,0,25.092,4.734,34.37,12.583
				c0.05,0.044,0.104,0.089,0.159,0.138c0.559,0.477,1.11,0.961,1.649,1.459c0.18,0.168,0.352,0.342,0.532,0.51
				c0.41,0.389,0.819,0.78,1.219,1.185c0.273,0.28,0.54,0.564,0.808,0.852c0.297,0.309,0.594,0.624,0.882,0.945
				c0.329,0.363,0.649,0.738,0.967,1.115c0.22,0.262,0.447,0.516,0.661,0.782c0.343,0.413,0.67,0.842,1,1.273
				c0.191,0.241,0.383,0.486,0.563,0.734c0.32,0.425,0.622,0.859,0.923,1.295c0.193,0.271,0.386,0.544,0.571,0.824
				c0.263,0.394,0.517,0.793,0.767,1.195c0.216,0.345,0.435,0.689,0.649,1.04c0.192,0.319,0.375,0.645,0.559,0.974
				c0.259,0.453,0.516,0.912,0.763,1.371c0.117,0.22,0.226,0.442,0.336,0.664c0.307,0.594,0.602,1.187,0.886,1.789
				c0.043,0.093,0.088,0.192,0.128,0.289c2.146,4.66,3.637,9.68,4.36,14.954c0.007,0.038,0.009,0.065,0.012,0.107
				c0.104,0.761,0.196,1.524,0.264,2.291c0.026,0.272,0.038,0.55,0.063,0.821c0.042,0.549,0.085,1.09,0.107,1.641
				c0.027,0.546,0.032,1.098,0.042,1.648c0.005,0.257,0.019,0.511,0.019,0.769c0,0.043-0.002,0.088-0.002,0.126
				C275.069,806.032,275.049,806.876,275.005,807.71z"/>
			<path d="M113.089,932.162c-2.734,0-5.372-0.745-7.838-2.216c-1.343-0.798-2.557-1.731-3.713-2.856
				c-0.121-0.125-9.594-10.107-0.112-22.13l59.324-59.311c-8.032-12.041-12.272-26.051-12.272-40.588
				c0-40.444,32.898-73.35,73.336-73.35c40.442,0,73.344,32.905,73.344,73.35c0,40.437-32.902,73.334-73.344,73.334
				c-13.228,0-26.208-3.583-37.578-10.367l-60.002,60C123.972,928.258,119.366,932.162,113.089,932.162z M221.814,734.265
				c-39.031,0-70.784,31.76-70.784,70.797c0,14.375,4.295,28.214,12.42,40.022l0.602,0.875l-60.722,60.693
				c-7.973,10.126-0.315,18.292,0.015,18.635c0.982,0.955,2.041,1.771,3.21,2.465c2.068,1.232,4.266,1.857,6.534,1.857
				c5.339,0,9.369-3.417,9.409-3.452l61.366-61.367l1.287,0.811c11.064,6.699,23.744,10.243,36.663,10.243
				c39.034,0,70.79-31.753,70.79-70.782C292.604,766.024,260.848,734.265,221.814,734.265z M221.814,859.598l-0.256-0.005
				c-0.717-0.005-1.395-0.023-2.073-0.051l-0.742-0.033c-0.636-0.04-1.272-0.089-1.915-0.147l-0.878-0.085
				c-0.458-0.048-0.925-0.109-1.394-0.174c-0.608-0.081-1.005-0.135-1.402-0.197l-1.168-0.205c-0.543-0.102-1.072-0.201-1.596-0.312
				l-0.475-0.11c-0.879-0.2-1.562-0.362-2.239-0.543c-6.873-1.862-13.122-4.926-18.706-9.148l-0.477-0.374
				c-0.507-0.394-1.008-0.782-1.497-1.188c-0.421-0.355-0.828-0.713-1.232-1.072l-0.674-0.588c-0.487-0.445-0.971-0.902-1.445-1.368
				h-0.007l-0.374-0.372c-4.294-4.288-7.817-9.228-10.473-14.686l-0.158-0.317c-0.292-0.618-0.572-1.241-0.844-1.865l-0.272-0.623
				c-0.237-0.579-0.453-1.129-0.663-1.685l-0.344-0.911c-0.163-0.443-0.312-0.899-0.461-1.359l-0.402-1.246
				c-0.158-0.517-0.308-1.056-0.451-1.592l-0.435-1.634c-0.066-0.276-0.12-0.544-0.172-0.814l-0.23-1.078
				c-0.157-0.792-0.295-1.572-0.421-2.355l-0.03-0.26c-3.613-23.321,8.775-46.899,30.137-57.213c0.78-0.384,1.387-0.652,2-0.916
				l0.786-0.345c0.447-0.186,0.901-0.363,1.355-0.533c0.56-0.215,0.937-0.36,1.321-0.491c0.307-0.116,0.64-0.225,0.978-0.334
				c0.549-0.19,1.131-0.375,1.717-0.549l0.749-0.218c0.648-0.18,1.296-0.355,1.947-0.514l0.576-0.131
				c4.049-0.941,8.207-1.419,12.34-1.419c12.872,0,25.372,4.574,35.193,12.883c0.736,0.631,1.299,1.125,1.852,1.636l0.537,0.515
				c0.426,0.404,0.845,0.804,1.255,1.219l0.832,0.877c0.295,0.307,0.602,0.634,0.9,0.967c0.333,0.366,0.663,0.754,0.991,1.142
				l0.681,0.807c0.342,0.411,0.679,0.854,1.02,1.3c0.19,0.239,0.392,0.496,0.583,0.76c0.315,0.417,0.627,0.866,0.938,1.316
				c0.193,0.268,0.395,0.555,0.589,0.849c0.265,0.396,0.525,0.809,0.783,1.223l0.654,1.049c0.205,0.339,0.396,0.677,0.586,1.019
				c0.257,0.452,0.52,0.92,0.771,1.389l0.302,0.594c0.358,0.694,0.66,1.301,0.951,1.917l0.153,0.344
				c2.215,4.813,3.717,9.966,4.445,15.271c0.119,0.891,0.213,1.674,0.282,2.462l0.064,0.814c0.053,0.717,0.091,1.208,0.111,1.705
				c0.022,0.451,0.031,0.917,0.038,1.383l0.023,1.088c-0.002,0.993-0.022,1.859-0.066,2.714c-0.049,1.001-0.115,1.893-0.207,2.785
				c-0.042,0.401-0.095,0.794-0.148,1.185l-0.167,1.326c-0.12,0.783-0.25,1.54-0.395,2.299
				c-4.263,21.926-21.758,39.261-43.562,43.302l-0.274,0.046c-0.747,0.136-1.498,0.253-2.255,0.358l-0.815,0.104
				c-0.577,0.071-1.146,0.134-1.717,0.183c-0.451,0.047-0.917,0.077-1.389,0.107c-0.5,0.034-0.835,0.058-1.173,0.071
				c-0.625,0.02-1.242,0.036-1.855,0.039L221.814,859.598z M185.169,841.915c0.537,0.532,1.087,1.056,1.647,1.567l0.637,0.556
				c0.394,0.35,0.783,0.693,1.181,1.027c0.46,0.38,0.936,0.752,1.417,1.123l0.466,0.367c5.314,4.019,11.27,6.938,17.695,8.674
				c0.769,0.212,1.418,0.365,2.072,0.514l0.649,0.15c0.489,0.104,0.998,0.198,1.508,0.293l1.113,0.197
				c0.374,0.059,0.748,0.109,1.126,0.159c0.662,0.09,1.102,0.15,1.546,0.195l0.591,0.059c0.86,0.078,1.472,0.125,2.092,0.163
				l0.693,0.031c0.634,0.024,1.282,0.043,1.934,0.047l0.278,1.284v-1.277l0.315-0.011c0.771-0.01,1.367-0.025,1.957-0.045
				c0.3-0.012,0.611-0.033,0.917-0.055c0.628-0.04,1.062-0.067,1.501-0.112c0.559-0.048,1.095-0.108,1.632-0.174l0.795-0.101
				c0.709-0.101,1.429-0.214,2.141-0.344l0.316-0.052c20.73-3.843,37.405-20.365,41.44-41.107c0.167-0.883,0.293-1.606,0.405-2.343
				l0.163-1.303c0.049-0.364,0.099-0.73,0.14-1.101c0.084-0.843,0.148-1.69,0.188-2.545c0.049-0.923,0.068-1.744,0.068-2.566
				l-0.021-1.173c-0.007-0.436-0.014-0.873-0.036-1.307c-0.019-0.481-0.054-0.942-0.09-1.407l-0.076-0.996
				c-0.067-0.756-0.157-1.501-0.258-2.24c-0.706-5.164-2.137-10.073-4.266-14.701l-0.126-0.282c-0.275-0.582-0.562-1.162-0.861-1.74
				l-0.329-0.652c-0.24-0.446-0.494-0.896-0.747-1.34c-0.182-0.327-0.357-0.641-0.542-0.947l-0.638-1.021
				c-0.244-0.394-0.49-0.782-0.746-1.162c-0.181-0.276-0.365-0.535-0.548-0.793c-0.303-0.436-0.595-0.858-0.905-1.269
				c-0.184-0.253-0.366-0.484-0.545-0.713c-0.33-0.433-0.648-0.848-0.98-1.248l-0.657-0.777c-0.304-0.362-0.614-0.725-0.932-1.076
				c-0.286-0.317-0.572-0.622-0.859-0.921l-0.801-0.846c-0.384-0.388-0.783-0.769-1.183-1.148l-0.523-0.502
				c-0.523-0.483-1.062-0.956-1.606-1.42c-12.574-10.642-29.521-14.766-45.482-11.059l-0.291,0.059
				c-0.867,0.214-1.49,0.385-2.108,0.555l-0.505,0.146c-0.75,0.223-1.294,0.396-1.835,0.582c-0.331,0.107-0.63,0.207-0.927,0.315
				c-0.38,0.132-0.731,0.267-1.081,0.401c-0.63,0.238-1.054,0.402-1.474,0.577l-0.746,0.33c-0.589,0.254-1.166,0.507-1.728,0.775
				c-20.542,9.929-32.348,32.4-28.894,54.746l0.03,0.255c0.106,0.616,0.239,1.368,0.388,2.119l0.233,1.093
				c0.046,0.234,0.092,0.469,0.148,0.701l0.422,1.586c0.133,0.504,0.275,1.011,0.426,1.504l0.325,1.011
				c0.201,0.616,0.338,1.042,0.492,1.461l0.277,0.735c0.258,0.679,0.466,1.212,0.682,1.739l0.266,0.607
				c0.259,0.594,0.53,1.194,0.809,1.789l-1.002,0.848l1.148-0.56c2.454,5.044,5.685,9.624,9.61,13.622h0.155L185.169,841.915z"/>
		</g>
	</g>
	<g>
		
			<rect x="205.211" y="773.658" transform="matrix(0.7073 0.7069 -0.7069 0.7073 616.1777 84.1379)" width="2.552" height="24.977"/>
	</g>
	<g>
		
			<rect x="237.336" y="805.784" transform="matrix(0.7069 0.7073 -0.7073 0.7069 648.6962 71.0528)" width="2.553" height="24.976"/>
	</g>
	<g>
		
			<rect x="221.483" y="770.218" transform="matrix(0.7074 0.7068 -0.7068 0.7074 632.3458 77.3423)" width="2.552" height="64.402"/>
	</g>
</g>
<g>
	<path d="M699.995,367.963c-0.706,0-1.277-0.571-1.277-1.277v-27.291c0-0.706,0.571-1.277,1.277-1.277
		c0.705,0,1.276,0.571,1.276,1.277v27.291C701.271,367.392,700.7,367.963,699.995,367.963z"/>
</g>
<g>
	<polygon fill="#D1D3D4" points="626.738,283.188 609,283.188 591.262,283.188 583.933,296.056 609,296.056 634.068,296.056 	"/>
	<path d="M631.212,294.583h-50.135c-0.455,0-0.875-0.242-1.104-0.635c-0.229-0.394-0.23-0.879-0.006-1.274l7.329-12.868
		c0.227-0.399,0.651-0.644,1.109-0.644h35.476c0.458,0,0.883,0.245,1.109,0.644l7.331,12.868c0.224,0.396,0.223,0.881-0.006,1.274
		C632.087,294.341,631.667,294.583,631.212,294.583z M583.273,292.029h45.743l-5.876-10.314h-33.993L583.273,292.029z"/>
</g>
<g>
	<path fill="#FFE79D" d="M614.231,301.23H609h-5.232c0,0-13.185,9.417,0,22.914l5.232,5.022l5.231-5.022
		C627.416,310.647,614.231,301.23,614.231,301.23z"/>
	<path d="M606.145,327.692c-0.318,0-0.637-0.118-0.883-0.355l-5.232-5.021c-4.538-4.645-6.615-9.35-6.202-14.011
		c0.594-6.684,6.109-10.695,6.344-10.863c0.215-0.154,0.476-0.238,0.742-0.238h10.463c0.266,0,0.526,0.083,0.742,0.238
		c0.234,0.168,5.751,4.179,6.345,10.863c0.412,4.662-1.665,9.366-6.172,13.982l-5.261,5.05
		C606.781,327.574,606.462,327.692,606.145,327.692z M601.353,299.757c-1.064,0.877-4.58,4.107-4.985,8.796
		c-0.335,3.879,1.501,7.898,5.458,11.949l4.318,4.145l4.347-4.173c3.936-4.029,5.771-8.057,5.427-11.943
		c-0.418-4.705-3.918-7.905-4.98-8.773H601.353z"/>
</g>
<g>
	<polygon fill="#D1D3D4" points="814.438,283.188 796.701,283.188 778.963,283.188 771.633,296.056 796.701,296.056 
		821.768,296.056 	"/>
	<path d="M818.912,294.583h-50.135c-0.455,0-0.875-0.242-1.104-0.635c-0.229-0.394-0.23-0.879-0.006-1.274l7.328-12.868
		c0.228-0.399,0.652-0.644,1.11-0.644h35.476c0.459,0,0.884,0.245,1.109,0.644l7.33,12.868c0.226,0.396,0.225,0.881-0.006,1.274
		C819.787,294.341,819.367,294.583,818.912,294.583z M770.975,292.029h45.741l-5.876-10.314h-33.992L770.975,292.029z"/>
</g>
<g>
	<path fill="#FFE79D" d="M801.932,301.23h-5.23h-5.232c0,0-13.186,9.417,0,22.914l5.232,5.022l5.23-5.022
		C815.115,310.647,801.932,301.23,801.932,301.23z"/>
	<path d="M793.845,327.692c-0.318,0-0.637-0.118-0.884-0.355l-5.231-5.021c-4.539-4.645-6.615-9.35-6.203-14.011
		c0.594-6.684,6.11-10.695,6.345-10.863c0.215-0.154,0.476-0.238,0.741-0.238h10.463c0.266,0,0.526,0.083,0.743,0.238
		c0.234,0.168,5.751,4.179,6.344,10.863c0.412,4.662-1.665,9.366-6.173,13.982l-5.261,5.05
		C794.481,327.574,794.162,327.692,793.845,327.692z M789.053,299.757c-1.063,0.877-4.579,4.107-4.984,8.796
		c-0.335,3.879,1.501,7.898,5.458,11.949l4.318,4.145l4.347-4.173c3.937-4.029,5.771-8.057,5.427-11.943
		c-0.418-4.705-3.918-7.905-4.979-8.773H789.053z"/>
</g>
<g>
	<rect x="79.854" y="528.077" transform="matrix(0.7073 0.7069 -0.7069 0.7073 423.2917 36.3097)" width="175.883" height="2.553"/>
</g>
<g>
	<path d="M909.542,256.791c-0.002,0-0.002,0-0.004,0c-8.483,0-16.832-2.319-24.144-6.705c-10.773-6.459-18.386-16.728-21.434-28.914
		c-3.048-12.186-1.171-24.829,5.292-35.602l0.655-1.095l40.179,24.098l45.149,12.381l-0.338,1.231
		c-1.156,4.21-2.834,8.166-4.987,11.757C941.459,248.036,925.991,256.791,909.542,256.791z M870.8,187.988
		c-5.59,9.942-7.144,21.453-4.363,32.564c2.884,11.524,10.083,21.234,20.271,27.345c6.915,4.147,14.812,6.34,22.831,6.34
		c0.002,0,0.003,0,0.004,0c15.793,0,30.065-8.077,38.179-21.607c1.824-3.043,3.289-6.366,4.36-9.894l-43.157-11.884L870.8,187.988z"
		/>
</g>
<g>
	<path d="M964.236,226.069l-56.615-15.524l30.216-50.386l1.095,0.657c21.853,13.106,32.398,39.433,25.643,64.023L964.236,226.069z
		 M911.54,208.972l50.896,13.958c5.671-22.719-3.954-46.75-23.729-59.254L911.54,208.972z"/>
</g>
<g>
	<path d="M910.02,211.51l-41.425-24.843l0.658-1.096c8.448-14.091,23.92-22.845,40.372-22.845c8.481,0,16.83,2.318,24.145,6.703
		l1.093,0.656L910.02,211.51z M872.113,185.799l37.03,22.208l22.207-37.029c-6.646-3.732-14.131-5.698-21.726-5.698
		C894.255,165.279,880.327,172.925,872.113,185.799z"/>
</g>
<g>
	<g>
		<g>
			<path d="M936.698,449.758h-62.906v-43.287c-14.46-10.234-23.073-26.827-23.073-44.523c0-30.065,24.461-54.526,54.527-54.526
				c30.064,0,54.525,24.461,54.525,54.526c0,17.696-8.614,34.289-23.073,44.523V449.758z M876.345,447.205h57.8v-42.069l0.554-0.38
				c14.102-9.723,22.52-25.724,22.52-42.806c0-28.658-23.315-51.972-51.972-51.972c-28.659,0-51.974,23.314-51.974,51.972
				c0,17.082,8.418,33.083,22.521,42.806l0.552,0.38V447.205z"/>
		</g>
		<g>
			<path d="M934.924,474.387h-59.355v-14.312h59.355V474.387z M878.12,471.833h54.25v-9.205h-54.25V471.833z"/>
		</g>
		<g>
			<rect x="903.969" y="366.686" width="2.553" height="81.795"/>
		</g>
		<g>
			<rect x="885.721" y="383.159" width="38.456" height="2.553"/>
		</g>
	</g>
	<g>
		<rect x="883.956" y="485.562" width="41.985" height="2.553"/>
	</g>
	<g>
		<rect x="883.956" y="498.646" width="41.985" height="2.553"/>
	</g>
</g>
<g>
	<g>
		<path d="M513.935,586.357H346.947V359.862h166.988V586.357z M349.5,583.805h161.882v-221.39H349.5V583.805z"/>
	</g>
	<g>
		<path d="M497.44,417.185H363.444v-40.348H497.44V417.185z M365.997,414.631h128.89V379.39h-128.89V414.631z"/>
	</g>
	<g>
		<path d="M390.731,459.689h-27.288V432.4h27.288V459.689z M365.997,457.135h22.182v-22.182h-22.182V457.135z"/>
	</g>
	<g>
		<path d="M426.301,459.689h-27.288V432.4h27.288V459.689z M401.566,457.135h22.182v-22.182h-22.182V457.135z"/>
	</g>
	<g>
		<path d="M461.871,459.689h-27.289V432.4h27.289V459.689z M437.135,457.135h22.182v-22.182h-22.182V457.135z"/>
	</g>
	<g>
		<path d="M497.44,459.689h-27.29V432.4h27.29V459.689z M472.704,457.135h22.183v-22.182h-22.183V457.135z"/>
	</g>
	<g>
		<path d="M390.731,496.142h-27.288v-27.288h27.288V496.142z M365.997,493.589h22.182v-22.182h-22.182V493.589z"/>
	</g>
	<g>
		<path d="M426.301,496.142h-27.288v-27.288h27.288V496.142z M401.566,493.589h22.182v-22.182h-22.182V493.589z"/>
	</g>
	<g>
		<path d="M461.871,496.142h-27.289v-27.288h27.289V496.142z M437.135,493.589h22.182v-22.182h-22.182V493.589z"/>
	</g>
	<g>
		<path d="M497.44,496.142h-27.29v-27.288h27.29V496.142z M472.704,493.589h22.183v-22.182h-22.183V493.589z"/>
	</g>
	<g>
		<path d="M390.731,532.594h-27.288v-27.287h27.288V532.594z M365.997,530.04h22.182v-22.182h-22.182V530.04z"/>
	</g>
	<g>
		<path d="M426.301,532.594h-27.288v-27.287h27.288V532.594z M401.566,530.04h22.182v-22.182h-22.182V530.04z"/>
	</g>
	<g>
		<path d="M461.871,532.594h-27.289v-27.287h27.289V532.594z M437.135,530.04h22.182v-22.182h-22.182V530.04z"/>
	</g>
	<g>
		<path d="M497.44,532.594h-27.29v-27.287h27.29V532.594z M472.704,530.04h22.183v-22.182h-22.183V530.04z"/>
	</g>
	<g>
		<path d="M390.731,569.047h-27.288v-27.288h27.288V569.047z M365.997,566.494h22.182v-22.182h-22.182V566.494z"/>
	</g>
	<g>
		<path d="M426.301,569.047h-27.288v-27.288h27.288V569.047z M401.566,566.494h22.182v-22.182h-22.182V566.494z"/>
	</g>
	<g>
		<path d="M461.871,569.047h-27.289v-27.288h27.289V569.047z M437.135,566.494h22.182v-22.182h-22.182V566.494z"/>
	</g>
	<g>
		<path d="M497.44,569.047h-27.29v-27.288h27.29V569.047z M472.704,566.494h22.183v-22.182h-22.183V566.494z"/>
	</g>
	<g>
		
			<rect x="475.062" y="381.698" transform="matrix(0.707 0.7072 -0.7072 0.707 420.0778 -220.6521)" width="2.553" height="29.915"/>
	</g>
	<g>
		<polygon points="386.485,455.441 368.967,455.441 368.967,452.888 383.932,452.888 383.932,437.924 386.485,437.924 		"/>
	</g>
	<g>
		<polygon points="422.053,455.441 404.536,455.441 404.536,452.888 419.501,452.888 419.501,437.924 422.053,437.924 		"/>
	</g>
	<g>
		<polygon points="457.623,455.441 440.105,455.441 440.105,452.888 455.07,452.888 455.07,437.924 457.623,437.924 		"/>
	</g>
	<g>
		<polygon points="493.191,455.441 475.673,455.441 475.673,452.888 490.638,452.888 490.638,437.924 493.191,437.924 		"/>
	</g>
	<g>
		<polygon points="386.485,491.895 368.967,491.895 368.967,489.341 383.932,489.341 383.932,474.377 386.485,474.377 		"/>
	</g>
	<g>
		<polygon points="422.053,491.895 404.536,491.895 404.536,489.341 419.501,489.341 419.501,474.377 422.053,474.377 		"/>
	</g>
	<g>
		<polygon points="457.623,491.895 440.105,491.895 440.105,489.341 455.07,489.341 455.07,474.377 457.623,474.377 		"/>
	</g>
	<g>
		<polygon points="493.191,491.895 475.673,491.895 475.673,489.341 490.638,489.341 490.638,474.377 493.191,474.377 		"/>
	</g>
	<g>
		<polygon points="386.485,528.349 368.967,528.349 368.967,525.794 383.932,525.794 383.932,510.83 386.485,510.83 		"/>
	</g>
	<g>
		<polygon points="422.053,528.349 404.536,528.349 404.536,525.794 419.501,525.794 419.501,510.83 422.053,510.83 		"/>
	</g>
	<g>
		<polygon points="457.623,528.349 440.105,528.349 440.105,525.794 455.07,525.794 455.07,510.83 457.623,510.83 		"/>
	</g>
	<g>
		<polygon points="493.191,528.349 475.673,528.349 475.673,525.794 490.638,525.794 490.638,510.83 493.191,510.83 		"/>
	</g>
	<g>
		<polygon points="386.485,564.801 368.967,564.801 368.967,562.248 383.932,562.248 383.932,547.281 386.485,547.281 		"/>
	</g>
	<g>
		<polygon points="422.053,564.801 404.536,564.801 404.536,562.248 419.501,562.248 419.501,547.281 422.053,547.281 		"/>
	</g>
	<g>
		<polygon points="457.623,564.801 440.105,564.801 440.105,562.248 455.07,562.248 455.07,547.281 457.623,547.281 		"/>
	</g>
	<g>
		<polygon points="493.191,564.801 475.673,564.801 475.673,562.248 490.638,562.248 490.638,547.281 493.191,547.281 		"/>
	</g>
</g>
</svg>
