<?xml version="1.0" encoding="utf-8"?>
<!-- Generator: Adobe Illustrator 16.0.0, SVG Export Plug-In . SVG Version: 6.00 Build 0)  -->
<!DOCTYPE svg PUBLIC "-//W3C//DTD SVG 1.1//EN" "http://www.w3.org/Graphics/SVG/1.1/DTD/svg11.dtd">
<svg version="1.1" xmlns="http://www.w3.org/2000/svg" xmlns:xlink="http://www.w3.org/1999/xlink" x="0px" y="0px"
	 width="1368.489px" height="556.989px" viewBox="0 0 1368.489 556.989" enable-background="new 0 0 1368.489 556.989"
	 xml:space="preserve">
<g id="grid">
</g>
<g id="landing_page">
	<g>
		<defs>
			<rect id="SVGID_66_" width="1422" height="556.989"/>
		</defs>
		<clipPath id="SVGID_2_">
			<use xlink:href="#SVGID_66_"  overflow="visible"/>
		</clipPath>
		<rect x="1053.454" y="385.826" clip-path="url(#SVGID_2_)" fill="#4E6073" width="28.333" height="33.236"/>
		<rect x="1058.263" y="375.826" clip-path="url(#SVGID_2_)" fill="#4E6073" width="9" height="10"/>
		<rect x="1069.291" y="398.374" clip-path="url(#SVGID_2_)" fill="#3C545F" width="9.246" height="20.115"/>
		<g clip-path="url(#SVGID_2_)">
			<rect x="963.454" y="409.226" fill="#4E6073" width="167.352" height="1.298"/>
			<rect x="963.454" y="418.319" fill="#4E6073" width="167.352" height="1.298"/>
			<rect x="963.454" y="409.226" fill="#4E6073" width="1.338" height="10.391"/>
			<rect x="968.806" y="409.226" fill="#4E6073" width="1.342" height="10.391"/>
			<rect x="974.163" y="409.226" fill="#4E6073" width="1.338" height="10.391"/>
			<rect x="979.52" y="409.226" fill="#4E6073" width="1.339" height="10.391"/>
			<rect x="984.872" y="409.226" fill="#4E6073" width="1.34" height="10.391"/>
			<rect x="990.231" y="409.226" fill="#4E6073" width="1.338" height="10.391"/>
			<rect x="995.585" y="409.226" fill="#4E6073" width="1.338" height="10.391"/>
			<rect x="1000.94" y="409.226" fill="#4E6073" width="1.338" height="10.391"/>
			<rect x="1006.294" y="409.226" fill="#4E6073" width="1.34" height="10.391"/>
			<rect x="1011.65" y="409.226" fill="#4E6073" width="1.339" height="10.391"/>
			<rect x="1017.006" y="409.226" fill="#4E6073" width="1.341" height="10.391"/>
			<rect x="1022.36" y="409.226" fill="#4E6073" width="1.34" height="10.391"/>
			<rect x="1027.719" y="409.226" fill="#4E6073" width="1.337" height="10.391"/>
			<rect x="1033.072" y="409.226" fill="#4E6073" width="1.339" height="10.391"/>
			<rect x="1038.428" y="409.226" fill="#4E6073" width="1.339" height="10.391"/>
			<rect x="1043.782" y="409.226" fill="#4E6073" width="1.34" height="10.391"/>
			<rect x="1049.14" y="409.226" fill="#4E6073" width="1.338" height="10.391"/>
			<rect x="1054.493" y="409.226" fill="#4E6073" width="1.34" height="10.391"/>
			<rect x="1059.849" y="409.226" fill="#4E6073" width="1.34" height="10.391"/>
			<rect x="1065.202" y="409.226" fill="#4E6073" width="1.34" height="10.391"/>
			<rect x="1070.56" y="409.226" fill="#4E6073" width="1.34" height="10.391"/>
			<rect x="1075.913" y="409.226" fill="#4E6073" width="1.342" height="10.391"/>
			<rect x="1081.271" y="409.226" fill="#4E6073" width="1.339" height="10.391"/>
			<rect x="1086.624" y="409.226" fill="#4E6073" width="1.342" height="10.391"/>
			<rect x="1091.979" y="409.226" fill="#4E6073" width="1.342" height="10.391"/>
			<rect x="1097.335" y="409.226" fill="#4E6073" width="1.34" height="10.391"/>
			<rect x="1102.69" y="409.226" fill="#4E6073" width="1.34" height="10.391"/>
			<rect x="1108.044" y="409.226" fill="#4E6073" width="1.34" height="10.391"/>
			<rect x="1113.401" y="409.226" fill="#4E6073" width="1.34" height="10.391"/>
			<rect x="1118.755" y="409.226" fill="#4E6073" width="1.341" height="10.391"/>
			<rect x="1124.112" y="409.226" fill="#4E6073" width="1.338" height="10.391"/>
			<rect x="1129.468" y="409.226" fill="#4E6073" width="1.338" height="10.391"/>
		</g>
		<g clip-path="url(#SVGID_2_)">
			<rect x="148.085" y="186.101" fill="#4D5456" width="129.414" height="1.003"/>
			<rect x="148.085" y="193.131" fill="#4D5456" width="129.414" height="1.004"/>
			<rect x="148.085" y="186.101" fill="#4D5456" width="1.035" height="8.034"/>
			<rect x="152.224" y="186.101" fill="#4D5456" width="1.037" height="8.034"/>
			<rect x="156.366" y="186.101" fill="#4D5456" width="1.035" height="8.034"/>
			<rect x="160.509" y="186.101" fill="#4D5456" width="1.035" height="8.034"/>
			<rect x="164.647" y="186.101" fill="#4D5456" width="1.037" height="8.034"/>
			<rect x="168.792" y="186.101" fill="#4D5456" width="1.034" height="8.034"/>
			<rect x="172.931" y="186.101" fill="#4D5456" width="1.035" height="8.034"/>
			<rect x="177.073" y="186.101" fill="#4D5456" width="1.035" height="8.034"/>
			<rect x="181.214" y="186.101" fill="#4D5456" width="1.035" height="8.034"/>
			<rect x="185.354" y="186.101" fill="#4D5456" width="1.035" height="8.034"/>
			<rect x="189.497" y="186.101" fill="#4D5456" width="1.037" height="8.034"/>
			<rect x="193.638" y="186.101" fill="#4D5456" width="1.035" height="8.034"/>
			<rect x="197.78" y="186.101" fill="#4D5456" width="1.033" height="8.034"/>
			<rect x="201.921" y="186.101" fill="#4D5456" width="1.035" height="8.034"/>
			<rect x="206.062" y="186.101" fill="#4D5456" width="1.035" height="8.034"/>
			<rect x="210.202" y="186.101" fill="#4D5456" width="1.037" height="8.034"/>
			<rect x="214.347" y="186.101" fill="#4D5456" width="1.033" height="8.034"/>
			<rect x="218.485" y="186.101" fill="#4D5456" width="1.035" height="8.034"/>
			<rect x="222.628" y="186.101" fill="#4D5456" width="1.035" height="8.034"/>
			<rect x="226.767" y="186.101" fill="#4D5456" width="1.035" height="8.034"/>
			<rect x="230.909" y="186.101" fill="#4D5456" width="1.036" height="8.034"/>
			<rect x="235.05" y="186.101" fill="#4D5456" width="1.037" height="8.034"/>
			<rect x="239.192" y="186.101" fill="#4D5456" width="1.035" height="8.034"/>
			<rect x="243.333" y="186.101" fill="#4D5456" width="1.036" height="8.034"/>
			<rect x="247.474" y="186.101" fill="#4D5456" width="1.037" height="8.034"/>
			<rect x="251.615" y="186.101" fill="#4D5456" width="1.035" height="8.034"/>
			<rect x="255.757" y="186.101" fill="#4D5456" width="1.035" height="8.034"/>
			<rect x="259.897" y="186.101" fill="#4D5456" width="1.035" height="8.034"/>
			<rect x="264.039" y="186.101" fill="#4D5456" width="1.036" height="8.034"/>
			<rect x="268.179" y="186.101" fill="#4D5456" width="1.037" height="8.034"/>
			<rect x="272.321" y="186.101" fill="#4D5456" width="1.035" height="8.034"/>
			<rect x="276.464" y="186.101" fill="#4D5456" width="1.035" height="8.034"/>
		</g>
		<g clip-path="url(#SVGID_2_)">
			<path fill="#4E6073" d="M1153.554,424.85h-197.57v51.153h9.415v-20.713c0-10.398,8.431-18.829,18.831-18.829
				c10.398,0,18.828,8.431,18.828,18.829v20.713h4.709v-20.713c0-10.398,8.43-18.829,18.829-18.829
				c10.401,0,18.831,8.431,18.831,18.829v47.736h4.707v-47.736c0-10.398,8.43-18.829,18.83-18.829
				c10.398,0,18.83,8.431,18.83,18.829v59.145h4.707v-59.145c0-10.398,8.432-18.829,18.832-18.829
				c10.398,0,18.828,8.431,18.828,18.829v59.145h4.709v-59.145c0-10.398,8.43-18.829,18.828-18.829"/>
			<rect x="946.687" y="418.062" fill="#4E6073" width="198.51" height="7.689"/>
		</g>
		<g clip-path="url(#SVGID_2_)">
			<circle fill="#60768B" cx="1160.595" cy="156.323" r="13.195"/>
			<rect x="1129.806" y="262.642" fill="#4E6073" width="61.883" height="323.813"/>
			<rect x="1107.359" y="156.325" fill="#4E6073" width="106.625" height="108.441"/>
			<rect x="1098.411" y="176.495" fill="#60768B" width="124.52" height="66.734"/>
			<rect x="1098.411" y="194.09" fill="#FEF7E2" width="124.52" height="34.275"/>
			<rect x="1156.198" y="326.647" fill="#FEFCE9" width="8.947" height="13.346"/>
			<rect x="1156.198" y="351.521" fill="#FEFCE9" width="8.947" height="13.346"/>
			<rect x="1156.198" y="376.698" fill="#FEFCE9" width="8.947" height="13.346"/>
			<path fill="#AF2530" d="M1197.099,228.366h8.514v-2.904c0-2.188-1.824-3.77-4.014-3.77h0.123c-2.19,0-4.623,1.581-4.623,3.77
				V228.366z"/>
			<circle fill="#C6A595" cx="1201.355" cy="219.447" r="3.284"/>
			<path fill="#EEC460" d="M1201.355,219.447c-1.216,0-2.312-0.608-2.798-1.703c0.609-0.973,1.582-1.702,2.798-1.702
				c1.824,0,3.282,1.459,3.282,3.284c0,0.486-0.121,0.973-0.242,1.337c-0.729-0.364-1.216-0.973-1.459-1.703
				C1202.448,219.325,1201.964,219.447,1201.355,219.447z"/>
			<path fill="#22356B" d="M1159.294,228.366h8.514v-2.904c0-2.188-1.825-3.77-4.014-3.77h0.123c-2.189,0-4.623,1.581-4.623,3.77
				V228.366z"/>
			<circle fill="#C6A595" cx="1163.552" cy="219.447" r="3.284"/>
			<path fill="#663D17" d="M1163.552,219.447c-1.217,0-2.312-0.608-2.799-1.703c0.608-0.973,1.582-1.702,2.799-1.702
				c1.824,0,3.282,1.459,3.282,3.284c0,0.486-0.122,0.973-0.243,1.337c-0.73-0.364-1.215-0.973-1.459-1.703
				C1164.646,219.325,1164.159,219.447,1163.552,219.447z"/>
		</g>
		<g clip-path="url(#SVGID_2_)">
			<polygon fill="#4E6073" points="277.408,193.234 148.173,193.234 148.173,566.064 340.024,566.064 340.024,237.787 			"/>
			<g>
				<rect x="272.876" y="244.684" fill="#3C545F" width="26.111" height="52.009"/>
				<rect x="230.243" y="244.684" fill="#3C545F" width="26.113" height="52.009"/>
				<rect x="186.276" y="244.684" fill="#3C545F" width="26.111" height="52.009"/>
				<rect x="272.876" y="307.504" fill="#3C545F" width="26.111" height="52.012"/>
				<rect x="230.243" y="307.504" fill="#3C545F" width="26.113" height="52.012"/>
				<rect x="186.276" y="307.504" fill="#3C545F" width="26.111" height="52.012"/>
			</g>
			<rect x="272.876" y="370.325" fill="#3C545F" width="26.111" height="52.013"/>
			<rect x="230.243" y="370.325" fill="#3C545F" width="26.113" height="52.013"/>
			<rect x="186.276" y="370.325" fill="#3C545F" width="26.111" height="52.013"/>
			<rect x="272.876" y="433.147" fill="#3C545F" width="26.111" height="52.01"/>
			<rect x="230.243" y="433.147" fill="#3C545F" width="26.113" height="52.01"/>
			<rect x="186.276" y="433.147" fill="#3C545F" width="26.111" height="52.01"/>
			<rect x="186.276" y="179.031" fill="#4E6073" width="37.387" height="14.101"/>
			<rect x="210.202" y="161.617" fill="#4E6073" width="9.318" height="17.414"/>
		</g>
		<g clip-path="url(#SVGID_2_)">
			<rect x="765.202" y="213.078" fill="#4E6073" width="198.736" height="358.958"/>
			<g>
				<rect x="931.679" y="233.5" fill="#3C545F" width="12.744" height="13.204"/>
				<rect x="894.438" y="233.5" fill="#3C545F" width="12.746" height="13.204"/>
				<rect x="857.202" y="233.5" fill="#3C545F" width="12.744" height="13.204"/>
				<rect x="819.765" y="233.5" fill="#3C545F" width="12.746" height="13.204"/>
				<rect x="782.527" y="233.5" fill="#3C545F" width="12.743" height="13.204"/>
				<polyline fill="#3C545F" points="931.679,280.744 931.679,267.54 944.423,267.54 944.423,280.744 				"/>
				<rect x="894.438" y="267.54" fill="#3C545F" width="12.746" height="13.204"/>
				<rect x="857.202" y="267.54" fill="#3C545F" width="12.744" height="13.204"/>
				<rect x="819.765" y="267.54" fill="#3C545F" width="12.746" height="13.204"/>
				<rect x="782.527" y="267.54" fill="#3C545F" width="12.743" height="13.204"/>
				<rect x="931.679" y="301.58" fill="#3C545F" width="12.744" height="13.204"/>
				<rect x="894.438" y="301.58" fill="#3C545F" width="12.746" height="13.204"/>
				<rect x="857.202" y="301.58" fill="#3C545F" width="12.744" height="13.204"/>
				<rect x="819.765" y="301.58" fill="#3C545F" width="12.746" height="13.204"/>
				<rect x="782.527" y="301.58" fill="#3C545F" width="12.743" height="13.204"/>
			</g>
			<g>
				<rect x="931.679" y="335.619" fill="#3C545F" width="12.744" height="13.203"/>
				<rect x="894.438" y="335.619" fill="#3C545F" width="12.746" height="13.203"/>
				<rect x="857.202" y="335.619" fill="#3C545F" width="12.744" height="13.203"/>
				<rect x="819.765" y="335.619" fill="#3C545F" width="12.746" height="13.203"/>
				<rect x="782.527" y="335.619" fill="#3C545F" width="12.743" height="13.203"/>
				<rect x="931.679" y="369.658" fill="#3C545F" width="12.744" height="13.204"/>
				<rect x="894.438" y="369.658" fill="#3C545F" width="12.746" height="13.204"/>
				<rect x="857.202" y="369.658" fill="#3C545F" width="12.744" height="13.204"/>
				<rect x="819.765" y="369.658" fill="#3C545F" width="12.746" height="13.204"/>
				<rect x="782.527" y="369.658" fill="#3C545F" width="12.743" height="13.204"/>
			</g>
			<g>
				<rect x="931.679" y="403.697" fill="#3C545F" width="12.744" height="13.204"/>
				<rect x="894.438" y="403.697" fill="#3C545F" width="12.746" height="13.204"/>
				<rect x="857.202" y="403.697" fill="#3C545F" width="12.744" height="13.204"/>
				<rect x="819.765" y="403.697" fill="#3C545F" width="12.746" height="13.204"/>
				<rect x="782.527" y="403.697" fill="#3C545F" width="12.743" height="13.204"/>
				<rect x="931.679" y="437.736" fill="#3C545F" width="12.744" height="13.204"/>
				<rect x="894.438" y="437.736" fill="#3C545F" width="12.746" height="13.204"/>
				<rect x="857.202" y="437.736" fill="#3C545F" width="12.744" height="13.204"/>
				<rect x="819.765" y="437.736" fill="#3C545F" width="12.746" height="13.204"/>
				<rect x="782.527" y="437.736" fill="#3C545F" width="12.743" height="13.204"/>
			</g>
			<g>
				<rect x="931.679" y="471.775" fill="#3C545F" width="12.744" height="13.205"/>
				<rect x="894.438" y="471.775" fill="#3C545F" width="12.746" height="13.205"/>
				<rect x="857.202" y="471.775" fill="#3C545F" width="12.744" height="13.205"/>
				<rect x="819.765" y="471.775" fill="#3C545F" width="12.746" height="13.205"/>
				<rect x="782.527" y="471.775" fill="#3C545F" width="12.743" height="13.205"/>
				<rect x="931.679" y="505.813" fill="#3C545F" width="12.744" height="13.206"/>
				<rect x="894.438" y="505.813" fill="#3C545F" width="12.746" height="13.206"/>
				<rect x="857.202" y="505.813" fill="#3C545F" width="12.744" height="13.206"/>
				<rect x="819.765" y="505.813" fill="#3C545F" width="12.746" height="13.206"/>
				<rect x="782.527" y="505.813" fill="#3C545F" width="12.743" height="13.206"/>
			</g>
			<rect x="886.679" y="200.473" fill="#4E6073" width="62.117" height="12.604"/>
			<rect x="928.09" y="183.035" fill="#4E6073" width="16.333" height="17.438"/>
			<rect x="783.315" y="200.473" fill="#4E6073" width="8.006" height="12.604"/>
		</g>
		<g clip-path="url(#SVGID_2_)">
			<g>
				<g>
					<path fill="#8EC73F" d="M1223.886,580.957c0-86.235-69.908-156.143-156.145-156.143c-86.234,0-156.143,69.907-156.143,156.143"
						/>
				</g>
				<g>
					<path fill="#8EC73F" d="M395.906,563.957c0-92.818-75.244-168.062-168.063-168.062c-92.817,0-168.062,75.245-168.062,168.062"
						/>
				</g>
				<g>
					<path fill="#8EC73F" d="M802.474,563.957c0-123.995-100.518-224.514-224.512-224.514
						c-123.996,0-224.514,100.519-224.514,224.514"/>
				</g>
				<g>
					<path fill="#8EC73F" d="M1026.267,523.422c0-77.269-62.64-139.908-139.908-139.908c-77.27,0-139.908,62.639-139.908,139.908"/>
				</g>
				<g>
					<path fill="#8EC73F" d="M1321.018,545.922c0-77.269-62.639-139.908-139.908-139.908c-77.268,0-139.908,62.639-139.908,139.908"
						/>
				</g>
				<g>
					<path fill="#8EC73F" d="M825.989,478.117c0-43.141-34.973-78.113-78.113-78.113s-78.112,34.972-78.112,78.113"/>
				</g>
				<g>
					<path fill="#8EC73F" d="M453.113,535.718c0-55.044-44.622-99.666-99.665-99.666c-55.045,0-99.666,44.622-99.666,99.666"/>
				</g>
			</g>
		</g>
		<g clip-path="url(#SVGID_2_)">
			<rect x="738.679" y="512.606" fill="#E3E2D2" width="23.037" height="18.59"/>
			<rect x="766.149" y="512.606" fill="#E3E2D2" width="23.039" height="18.59"/>
			<rect x="711.206" y="512.606" fill="#E3E2D2" width="23.038" height="18.59"/>
			<rect x="683.734" y="512.606" fill="#E3E2D2" width="23.038" height="18.59"/>
			<rect x="683.734" y="546.087" fill="#E3E2D2" width="23.038" height="18.59"/>
			<rect x="711.206" y="512.606" fill="#E3E2D2" width="23.038" height="18.59"/>
			<rect x="656.263" y="512.606" fill="#E3E2D2" width="23.038" height="18.59"/>
			<rect x="628.792" y="512.606" fill="#E3E2D2" width="23.037" height="18.59"/>
			<rect x="656.263" y="512.606" fill="#E3E2D2" width="23.038" height="18.59"/>
			<rect x="601.319" y="512.606" fill="#E3E2D2" width="23.038" height="18.59"/>
			<rect x="601.319" y="546.087" fill="#E3E2D2" width="77.981" height="41.872"/>
			<polyline fill="none" stroke="#959367" stroke-miterlimit="10" points="608.499,573.702 628.013,565.896 643.175,572.651 
				655.335,563.944 670.946,555.729 			"/>
		</g>
		<rect x="288.187" y="511.229" clip-path="url(#SVGID_2_)" fill="#E3E2D2" width="108.559" height="63.348"/>
		<rect x="392.722" y="540.768" clip-path="url(#SVGID_2_)" fill="#E3E2D2" width="123.576" height="63.348"/>
		<rect x="538.21" y="511.229" clip-path="url(#SVGID_2_)" fill="#E3E2D2" width="15.41" height="63.348"/>
		<path clip-path="url(#SVGID_2_)" fill="none" stroke="#FFFFFF" stroke-width="2" stroke-miterlimit="10" d="M973.093,212.428
			c0,4.771-3.869,8.638-8.639,8.638l0,0c-4.771,0-8.639-3.868-8.639-8.638l0,0c0-4.771,3.867-8.639,8.639-8.639l0,0
			C969.224,203.79,973.093,207.657,973.093,212.428L973.093,212.428z"/>
		<path clip-path="url(#SVGID_2_)" fill="none" stroke="#FFFFFF" stroke-width="2" stroke-miterlimit="10" d="M287.092,195.494
			c0,4.771-3.867,8.639-8.638,8.639l0,0c-4.771,0-8.639-3.867-8.639-8.639l0,0c0-4.771,3.867-8.638,8.639-8.638l0,0
			C283.225,186.856,287.092,190.723,287.092,195.494L287.092,195.494z"/>
		<path clip-path="url(#SVGID_2_)" fill="none" stroke="#FFFFFF" stroke-width="2" stroke-miterlimit="10" d="M1106.823,177.497
			c0,4.771-3.867,8.638-8.639,8.638l0,0c-4.771,0-8.639-3.867-8.639-8.638l0,0c0-4.771,3.868-8.639,8.639-8.639l0,0
			C1102.956,168.858,1106.823,172.725,1106.823,177.497L1106.823,177.497z"/>
		
			<path clip-path="url(#SVGID_2_)" fill="none" stroke="#FFFFFF" stroke-width="2" stroke-miterlimit="10" stroke-dasharray="4,4" d="
			M971.718,207.765c0,0,44.508-25.141,117.828-30.269"/>
		<rect x="554.487" y="220.166" clip-path="url(#SVGID_2_)" fill="#60768B" width="72.896" height="36.208"/>
		<rect x="561.192" y="196.568" clip-path="url(#SVGID_2_)" fill="#60768B" width="45.703" height="26.227"/>
		<path clip-path="url(#SVGID_2_)" fill="none" stroke="#FFFFFF" stroke-width="2" stroke-miterlimit="10" d="M563.126,220.167
			c0,4.771-3.867,8.638-8.639,8.638l0,0c-4.771,0-8.639-3.867-8.639-8.638l0,0c0-4.771,3.868-8.639,8.639-8.639l0,0
			C559.259,211.528,563.126,215.396,563.126,220.167L563.126,220.167z"/>
		
			<path clip-path="url(#SVGID_2_)" fill="none" stroke="#FFFFFF" stroke-width="2" stroke-miterlimit="10" stroke-dasharray="4,4" d="
			M287.092,195.494c0,0,159.388-25.17,258.757,24.673"/>
		<g clip-path="url(#SVGID_2_)">
			<g>
				<rect x="281.835" y="252.792" fill="#60768B" width="562.914" height="387.311"/>
				<rect x="288.364" y="277.516" fill="#F58981" width="265.434" height="109.044"/>
				<rect x="571.255" y="277.516" fill="#18B8EC" width="265.436" height="109.044"/>
				<rect x="288.364" y="399.958" fill="#A0A8D5" width="265.434" height="109.044"/>
				<rect x="571.255" y="399.958" fill="#80CBC4" width="265.436" height="109.044"/>
				<rect x="288.364" y="522.402" fill="#C6C5AC" width="265.434" height="109.044"/>
				<rect x="571.255" y="522.402" fill="#C6C5AC" width="265.436" height="109.044"/>
			</g>
			<g>
				<rect x="312.452" y="290.826" fill="#FEF7E2" width="117.799" height="79.667"/>
				<polyline fill="none" stroke="#7CB342" stroke-width="2" stroke-miterlimit="10" points="323.298,343.365 352.776,328.513 
					375.679,341.366 394.046,324.8 417.628,309.171 				"/>
			</g>
			<rect x="571.257" y="423.766" fill="#25A69A" width="108.559" height="63.348"/>
			<rect x="688.792" y="423.766" fill="#25A69A" width="123.576" height="63.348"/>
			<rect x="604.953" y="288.914" fill="#FEF7E2" width="193.995" height="75.221"/>
			<rect x="821.281" y="423.766" fill="#25A69A" width="15.409" height="63.348"/>
			<g>
				<rect x="336.8" y="372.255" fill="#663D17" width="6.66" height="14.655"/>
				<path fill="#22356B" d="M344.793,374.918h-9.325v-7.859c0-2.398,2.264-4.13,4.662-4.13h-0.134c2.397,0,4.797,1.732,4.797,4.13
					V374.918z"/>
				<circle fill="#C6A595" cx="339.996" cy="360.265" r="3.597"/>
				<path d="M339.996,360.265c1.333,0,2.532-0.666,3.063-1.866c-0.666-1.065-1.73-1.864-3.063-1.864
					c-1.999,0-3.599,1.599-3.599,3.598c0,0.532,0.135,1.065,0.268,1.465c0.801-0.399,1.332-1.066,1.6-1.865
					C338.798,360.132,339.329,360.265,339.996,360.265z"/>
			</g>
			<g>
				<rect x="394.675" y="371.361" fill="#272361" width="7.066" height="15.549"/>
				<path fill="#AED580" d="M393.261,374.188h9.895v-8.34c0-2.545-2.402-4.381-4.947-4.381h0.142c-2.544,0-5.089,1.836-5.089,4.381
					V374.188z"/>
				<circle fill="#C6A595" cx="398.35" cy="358.639" r="3.817"/>
				<path fill="#EEC460" d="M398.35,358.639c-1.413,0-2.687-0.706-3.25-1.979c0.706-1.13,1.837-1.978,3.25-1.978
					c2.12,0,3.817,1.695,3.817,3.817c0,0.563-0.143,1.13-0.283,1.554c-0.85-0.424-1.414-1.132-1.697-1.979
					C399.621,358.5,399.056,358.639,398.35,358.639z"/>
			</g>
			<g>
				<rect x="378.062" y="374.125" fill="#3C3D44" width="5.811" height="12.785"/>
				<path fill="#AF2530" d="M385.035,376.449h-8.136v-6.856c0-2.092,1.975-3.603,4.067-3.603h-0.116
					c2.092,0,4.185,1.511,4.185,3.603V376.449z"/>
				<circle fill="#DF9A70" cx="380.849" cy="363.665" r="3.138"/>
				<path fill="#663D17" d="M380.849,363.666c-1.162,0-2.208-0.582-2.672-1.628c0.58-0.93,1.51-1.626,2.672-1.626
					c1.744,0,3.139,1.394,3.139,3.138c0,0.464-0.117,0.93-0.232,1.278c-0.698-0.348-1.162-0.93-1.395-1.627
					C381.895,363.549,381.431,363.666,380.849,363.666z"/>
			</g>
			<g>
				<rect x="329.255" y="491.35" fill="#546E7A" width="21.85" height="3"/>
				<rect x="338.208" y="494.286" fill="#546E7A" width="5" height="15.024"/>
				<g>
					<path fill="#3C3D44" d="M342.877,480.759c0,0,0.212-0.012,0.565,0.006c0.355,0.028,0.858,0.05,1.507,0.312
						c0.312,0.138,0.72,0.36,0.98,0.856c0.128,0.225,0.177,0.572,0.177,0.753c0.008,0.168,0.016,0.339,0.024,0.514
						c0.034,0.699,0.069,1.443,0.104,2.188c0.144,2.98,0.287,5.96,0.287,5.96h-2.166c0,0,0.143-2.98,0.285-5.96
						c0.036-0.745,0.072-1.489,0.105-2.188c0.008-0.174,0.017-0.346,0.024-0.514c0.007-0.154,0.01-0.141-0.004-0.207
						c-0.017-0.091-0.147-0.227-0.331-0.328c-0.373-0.205-0.814-0.292-1.102-0.339c-0.296-0.046-0.457-0.054-0.457-0.054
						L342.877,480.759z"/>
					
						<rect x="341.942" y="474.438" transform="matrix(0.9663 0.2574 -0.2574 0.9663 135.4046 -72.0218)" fill="#3C3D44" width="1.681" height="13.434"/>
				</g>
				<g>
					<path fill="#546E7A" d="M326.438,500.119c0,0.831-0.674,1.505-1.505,1.505h-9.036c-0.83,0-1.504-0.674-1.504-1.505l0,0
						c0-0.831,0.674-1.504,1.504-1.504h9.036C325.765,498.615,326.438,499.288,326.438,500.119L326.438,500.119z"/>
					<path fill="#546E7A" d="M312.669,490.018c0.797-0.237,1.637,0.215,1.873,1.012l2.585,8.658
						c0.237,0.797-0.216,1.635-1.013,1.873l0,0c-0.795,0.238-1.635-0.216-1.871-1.012l-2.585-8.659
						C311.421,491.094,311.874,490.255,312.669,490.018L312.669,490.018z"/>
					<rect x="318.915" y="500.857" fill="#546E7A" width="3" height="8.453"/>
				</g>
				<g>
					<path fill="#E3E2B0" d="M323.919,496.424h-8.976v-7.564c0-2.308,1.923-3.975,4.231-3.975h-0.129
						c2.309,0,4.873,1.667,4.873,3.975V496.424z"/>
					<circle fill="#7F5F4D" cx="319.431" cy="482.518" r="3.462"/>
					<path d="M319.431,482.518c1.281,0,2.436-0.641,2.949-1.796c-0.641-1.025-1.668-1.794-2.949-1.794
						c-1.924,0-3.461,1.538-3.461,3.462c0,0.512,0.127,1.025,0.256,1.41c0.77-0.385,1.281-1.026,1.539-1.796
						C318.278,482.39,318.79,482.518,319.431,482.518z"/>
					<g>
						<path fill="#272361" d="M317.823,498.803c-1.649,0-3-0.848-3-1.885c0-1.036,1.351-1.885,3-1.885h6.959c1.65,0,3,0.849,3,1.885
							c0,1.037-1.35,1.885-3,1.885H317.823z"/>
					</g>
					<g>
						<path fill="#272361" d="M324.837,498.972c-0.672-1.507-0.436-3.062,0.523-3.456s2.293,0.518,2.963,2.026l3.127,7.023
							c0.67,1.508,0.435,3.062-0.524,3.456s-2.292-0.518-2.964-2.025L324.837,498.972z"/>
					</g>
				</g>
				<rect x="359.849" y="491.35" fill="#546E7A" width="21.85" height="3"/>
				<rect x="367.745" y="494.286" fill="#546E7A" width="5" height="15.024"/>
				<g>
					<path fill="#3C3D44" d="M368.075,481.759c0,0-0.161,0.008-0.457,0.054c-0.287,0.048-0.729,0.134-1.102,0.339
						c-0.184,0.101-0.314,0.237-0.331,0.328c-0.014,0.065-0.011,0.052-0.004,0.207c0.008,0.168,0.017,0.339,0.024,0.514
						c0.033,0.699,0.069,1.443,0.105,2.188c0.143,2.98,0.285,5.96,0.285,5.96h-2.166c0,0,0.144-2.98,0.287-5.96
						c0.035-0.745,0.07-1.489,0.104-2.188c0.009-0.174,0.017-0.346,0.024-0.514c0-0.182,0.049-0.528,0.177-0.753
						c0.261-0.497,0.669-0.718,0.98-0.856c0.648-0.261,1.151-0.283,1.507-0.312c0.354-0.018,0.565-0.006,0.565-0.006
						L368.075,481.759z"/>
					
						<rect x="367.33" y="474.437" transform="matrix(-0.8943 0.4474 -0.4474 -0.8943 912.7199 746.72)" fill="#3C3D44" width="1.681" height="13.435"/>
				</g>
				<g>
					<path fill="#546E7A" d="M386.286,500.119c0,0.831,0.674,1.505,1.504,1.505h9.036c0.831,0,1.505-0.674,1.505-1.505l0,0
						c0-0.831-0.674-1.504-1.505-1.504h-9.036C386.96,498.615,386.286,499.288,386.286,500.119L386.286,500.119z"/>
					<path fill="#546E7A" d="M400.054,490.018c-0.797-0.237-1.635,0.215-1.871,1.012l-2.586,8.658
						c-0.238,0.797,0.215,1.635,1.012,1.873l0,0c0.797,0.238,1.636-0.216,1.873-1.012l2.584-8.659
						C401.304,491.094,400.851,490.255,400.054,490.018L400.054,490.018z"/>
					<rect x="390.809" y="500.857" fill="#546E7A" width="3" height="8.453"/>
				</g>
				<g>
					<path fill="#AF2530" d="M388.806,496.424h8.975v-7.564c0-2.308-1.924-3.975-4.23-3.975h0.129c-2.309,0-4.873,1.667-4.873,3.975
						V496.424z"/>
					<circle fill="#C6A595" cx="393.294" cy="482.518" r="3.462"/>
					<path fill="#EEC460" d="M393.294,482.518c-1.283,0-2.436-0.641-2.949-1.796c0.641-1.025,1.666-1.794,2.949-1.794
						c1.923,0,3.461,1.538,3.461,3.462c0,0.512-0.129,1.025-0.256,1.41c-0.77-0.385-1.282-1.026-1.539-1.796
						C394.446,482.39,393.935,482.518,393.294,482.518z"/>
					<g>
						<path fill="#3C3D44" d="M394.9,498.803c1.649,0,3-0.848,3-1.885c0-1.036-1.351-1.885-3-1.885h-6.96c-1.649,0-3,0.849-3,1.885
							c0,1.037,1.351,1.885,3,1.885H394.9z"/>
					</g>
					<g>
						<path fill="#3C3D44" d="M387.888,498.972c0.67-1.508,0.435-3.063-0.524-3.457s-2.292,0.518-2.964,2.026l-3.125,7.023
							c-0.671,1.508-0.436,3.062,0.523,3.456s2.293-0.518,2.965-2.025L387.888,498.972z"/>
					</g>
				</g>
			</g>
			<g>
				<rect x="750.497" y="491.35" fill="#546E7A" width="21.852" height="3"/>
				<rect x="759.452" y="494.286" fill="#546E7A" width="5" height="15.024"/>
				<g>
					<path fill="#546E7A" d="M747.681,500.119c0,0.831-0.673,1.505-1.504,1.505h-9.035c-0.832,0-1.506-0.674-1.506-1.505l0,0
						c0-0.831,0.674-1.504,1.506-1.504h9.035C747.008,498.615,747.681,499.288,747.681,500.119L747.681,500.119z"/>
					<path fill="#546E7A" d="M733.913,490.018c0.797-0.237,1.635,0.215,1.873,1.012l2.584,8.658
						c0.238,0.797-0.215,1.635-1.012,1.873l0,0c-0.797,0.238-1.635-0.216-1.872-1.012l-2.585-8.659
						C732.663,491.094,733.116,490.255,733.913,490.018L733.913,490.018z"/>
					<rect x="740.159" y="500.857" fill="#546E7A" width="3" height="8.453"/>
				</g>
				<rect x="781.091" y="491.35" fill="#546E7A" width="21.851" height="3"/>
				<rect x="788.987" y="494.286" fill="#546E7A" width="5" height="15.024"/>
				<g>
					<path fill="#3C3D44" d="M789.318,481.759c0,0-0.161,0.008-0.458,0.054c-0.287,0.048-0.728,0.134-1.1,0.339
						c-0.184,0.101-0.314,0.238-0.332,0.328c-0.014,0.065-0.01,0.051-0.004,0.207c0.008,0.168,0.016,0.339,0.025,0.514
						c0.033,0.699,0.068,1.443,0.104,2.188c0.144,2.979,0.286,5.96,0.286,5.96h-2.166c0,0,0.143-2.98,0.285-5.96
						c0.037-0.746,0.072-1.49,0.105-2.188c0.008-0.175,0.017-0.346,0.025-0.514c0-0.181,0.048-0.528,0.176-0.753
						c0.261-0.496,0.668-0.718,0.98-0.856c0.648-0.261,1.152-0.283,1.508-0.312c0.352-0.018,0.564-0.006,0.564-0.006
						L789.318,481.759z"/>
					
						<rect x="788.572" y="474.437" transform="matrix(-0.8944 0.4472 -0.4472 -0.8944 1710.6644 558.4761)" fill="#3C3D44" width="1.681" height="13.434"/>
				</g>
				<g>
					<path fill="#546E7A" d="M809.33,500.119c0,0.831,0.674,1.505,1.505,1.505h9.035c0.832,0,1.506-0.674,1.506-1.505l0,0
						c0-0.831-0.674-1.504-1.506-1.504h-9.035C810.004,498.615,809.33,499.288,809.33,500.119L809.33,500.119z"/>
					<path fill="#546E7A" d="M823.099,490.018c-0.797-0.237-1.635,0.215-1.873,1.012l-2.584,8.658
						c-0.238,0.797,0.215,1.635,1.012,1.873l0,0c0.797,0.238,1.635-0.216,1.872-1.012l2.585-8.659
						C824.349,491.094,823.896,490.255,823.099,490.018L823.099,490.018z"/>
					<rect x="813.853" y="500.857" fill="#546E7A" width="3" height="8.453"/>
				</g>
				<g>
					<path fill="#22356B" d="M811.849,496.424h8.977v-7.564c0-2.308-1.924-3.975-4.23-3.975h0.129c-2.309,0-4.875,1.667-4.875,3.975
						V496.424z"/>
					<circle fill="#C6A595" cx="816.339" cy="482.518" r="3.462"/>
					<path fill="#EEC460" d="M816.339,482.518c-1.283,0-2.438-0.641-2.951-1.796c0.643-1.025,1.668-1.794,2.951-1.794
						c1.922,0,3.46,1.538,3.46,3.462c0,0.512-0.128,1.025-0.255,1.41c-0.77-0.385-1.283-1.026-1.539-1.796
						C817.491,482.39,816.979,482.518,816.339,482.518z"/>
					<g>
						<path fill="#663D17" d="M817.944,498.803c1.65,0,3-0.848,3-1.885c0-1.036-1.35-1.885-3-1.885h-6.959c-1.65,0-3,0.849-3,1.885
							c0,1.037,1.35,1.885,3,1.885H817.944z"/>
					</g>
					<g>
						<path fill="#663D17" d="M810.933,498.972c0.67-1.508,0.435-3.063-0.524-3.457s-2.292,0.518-2.964,2.026l-3.125,7.023
							c-0.672,1.508-0.436,3.062,0.523,3.456s2.293-0.518,2.963-2.025L810.933,498.972z"/>
					</g>
				</g>
			</g>
			<g>
				<rect x="499.351" y="491.35" fill="#546E7A" width="21.85" height="3"/>
				<rect x="507.247" y="494.286" fill="#546E7A" width="5" height="15.024"/>
				<g>
					<path fill="#3C3D44" d="M507.577,481.759c0,0-0.161,0.008-0.457,0.054c-0.287,0.048-0.729,0.134-1.102,0.339
						c-0.184,0.101-0.314,0.237-0.331,0.328c-0.014,0.065-0.011,0.052-0.004,0.207c0.008,0.168,0.017,0.339,0.024,0.514
						c0.033,0.699,0.069,1.443,0.105,2.188c0.143,2.98,0.285,5.96,0.285,5.96h-2.166c0,0,0.144-2.98,0.287-5.96
						c0.035-0.745,0.07-1.489,0.104-2.188c0.009-0.174,0.017-0.346,0.024-0.514c0-0.182,0.049-0.528,0.177-0.753
						c0.261-0.497,0.669-0.718,0.98-0.856c0.648-0.261,1.151-0.283,1.507-0.312c0.354-0.018,0.565-0.006,0.565-0.006
						L507.577,481.759z"/>
					
						<rect x="506.831" y="474.438" transform="matrix(-0.9663 0.2573 -0.2573 -0.9663 1122.0402 815.5072)" fill="#3C3D44" width="1.682" height="13.434"/>
				</g>
				<g>
					<path fill="#546E7A" d="M524.017,500.119c0,0.831,0.674,1.505,1.504,1.505h9.037c0.83,0,1.504-0.674,1.504-1.505l0,0
						c0-0.831-0.674-1.504-1.504-1.504h-9.037C524.69,498.615,524.017,499.288,524.017,500.119L524.017,500.119z"/>
					<path fill="#546E7A" d="M537.784,490.018c-0.797-0.237-1.635,0.215-1.871,1.012l-2.586,8.658
						c-0.237,0.797,0.215,1.635,1.012,1.873l0,0c0.797,0.238,1.637-0.216,1.873-1.012l2.584-8.659
						C539.034,491.094,538.581,490.255,537.784,490.018L537.784,490.018z"/>
					<rect x="528.539" y="500.857" fill="#546E7A" width="3" height="8.453"/>
				</g>
				<g>
					<path fill="#AED580" d="M526.536,496.424h8.975v-7.564c0-2.308-1.924-3.975-4.23-3.975h0.129c-2.309,0-4.873,1.667-4.873,3.975
						V496.424z"/>
					<circle fill="#7F5F4D" cx="531.024" cy="482.518" r="3.462"/>
					<path d="M531.024,482.518c-1.282,0-2.436-0.641-2.949-1.796c0.641-1.025,1.667-1.794,2.949-1.794
						c1.923,0,3.461,1.538,3.461,3.462c0,0.512-0.129,1.025-0.256,1.41c-0.77-0.385-1.282-1.026-1.539-1.796
						C532.177,482.39,531.665,482.518,531.024,482.518z"/>
					<g>
						<path fill="#3C3D44" d="M532.631,498.803c1.649,0,3-0.848,3-1.885c0-1.036-1.351-1.885-3-1.885h-6.96
							c-1.649,0-3,0.849-3,1.885c0,1.037,1.351,1.885,3,1.885H532.631z"/>
					</g>
					<g>
						<path fill="#3C3D44" d="M525.618,498.972c0.671-1.508,0.436-3.063-0.523-3.457s-2.293,0.518-2.965,2.026l-3.125,7.023
							c-0.671,1.508-0.436,3.062,0.523,3.456s2.293-0.518,2.965-2.025L525.618,498.972z"/>
					</g>
				</g>
				<rect x="468.757" y="491.35" fill="#546E7A" width="21.85" height="3"/>
				<rect x="477.71" y="494.286" fill="#546E7A" width="5" height="15.024"/>
				<g>
					<path fill="#546E7A" d="M467.772,500.119c0,0.831-0.674,1.505-1.504,1.505h-9.037c-0.83,0-1.504-0.674-1.504-1.505l0,0
						c0-0.831,0.674-1.504,1.504-1.504h9.037C467.099,498.615,467.772,499.288,467.772,500.119L467.772,500.119z"/>
					<path fill="#546E7A" d="M454.004,490.018c0.797-0.237,1.636,0.215,1.872,1.012l2.586,8.658
						c0.236,0.797-0.216,1.635-1.013,1.873l0,0c-0.796,0.238-1.636-0.216-1.872-1.012l-2.584-8.659
						C452.755,491.094,453.208,490.255,454.004,490.018L454.004,490.018z"/>
					<rect x="460.249" y="500.857" fill="#546E7A" width="3" height="8.453"/>
				</g>
			</g>
			<g>
				<path fill="#546E7A" d="M616.296,503.507c0,3.035-1.258,5.496-2.811,5.496h-16.889c-1.554,0-2.814-2.46-2.814-5.496l0,0
					c0-3.034,1.261-5.493,2.814-5.493h16.889C615.038,498.014,616.296,500.474,616.296,503.507L616.296,503.507z"/>
				<path fill="#546E7A" d="M592.433,485.356c2.353-0.701,4.611-0.085,5.047,1.373l4.736,15.87c0.438,1.46-1.115,3.212-3.467,3.915
					l0,0c-2.35,0.703-4.611,0.086-5.043-1.375l-4.739-15.868C588.532,487.811,590.085,486.059,592.433,485.356L592.433,485.356z"/>
			</g>
			<g>
				<path fill="#546E7A" d="M681.247,503.507c0,3.035,1.258,5.496,2.811,5.496h16.889c1.554,0,2.814-2.46,2.814-5.496l0,0
					c0-3.034-1.261-5.493-2.814-5.493h-16.889C682.505,498.014,681.247,500.474,681.247,503.507L681.247,503.507z"/>
				<path fill="#546E7A" d="M705.11,485.356c-2.354-0.701-4.611-0.085-5.047,1.373l-4.736,15.87
					c-0.438,1.46,1.116,3.212,3.467,3.915l0,0c2.35,0.703,4.611,0.086,5.043-1.375l4.738-15.868
					C709.011,487.811,707.459,486.059,705.11,485.356L705.11,485.356z"/>
			</g>
			<rect x="316.587" y="425.511" fill="#FEF7E2" width="77.982" height="41.872"/>
			<rect x="455.087" y="425.511" fill="#FEF7E2" width="77.982" height="41.872"/>
			<g>
				<rect x="410.374" y="440" fill="#FEF7E2" width="28.221" height="24.475"/>
				<g>
					<rect x="412.261" y="442.079" fill="#D3D2C4" width="3.035" height="3.103"/>
					<rect x="415.823" y="442.079" fill="#D3D2C4" width="3.035" height="3.103"/>
					<rect x="419.386" y="442.079" fill="#D3D2C4" width="3.035" height="3.103"/>
					<rect x="422.948" y="442.079" fill="#D3D2C4" width="3.035" height="3.103"/>
					<rect x="426.511" y="442.079" fill="#D3D2C4" width="3.036" height="3.103"/>
					<rect x="430.073" y="442.079" fill="#D3D2C4" width="3.037" height="3.103"/>
					<rect x="412.261" y="445.708" fill="#D3D2C4" width="3.035" height="3.101"/>
					<rect x="415.823" y="445.708" fill="#D3D2C4" width="3.035" height="3.101"/>
					<rect x="419.386" y="445.708" fill="#D3D2C4" width="3.035" height="3.101"/>
					<rect x="422.948" y="445.708" fill="#D3D2C4" width="3.035" height="3.101"/>
					<rect x="426.511" y="445.708" fill="#D3D2C4" width="3.036" height="3.101"/>
					<rect x="430.073" y="445.708" fill="#D3D2C4" width="3.037" height="3.101"/>
					<rect x="412.261" y="449.335" fill="#D3D2C4" width="3.035" height="3.102"/>
					<rect x="415.823" y="449.335" fill="#D3D2C4" width="3.035" height="3.102"/>
					<rect x="419.386" y="449.335" fill="#D3D2C4" width="3.035" height="3.102"/>
					<rect x="422.948" y="449.335" fill="#D3D2C4" width="3.035" height="3.102"/>
					<rect x="426.511" y="449.335" fill="#D3D2C4" width="3.036" height="3.102"/>
					<rect x="430.073" y="449.335" fill="#D3D2C4" width="3.037" height="3.102"/>
					<rect x="412.261" y="452.964" fill="#D3D2C4" width="3.035" height="3.102"/>
					<rect x="415.823" y="452.964" fill="#D3D2C4" width="3.035" height="3.102"/>
					<rect x="419.386" y="452.964" fill="#D3D2C4" width="3.035" height="3.102"/>
					<rect x="412.261" y="456.592" fill="#D3D2C4" width="3.035" height="3.102"/>
					<rect x="415.823" y="456.592" fill="#D3D2C4" width="3.035" height="3.102"/>
					<rect x="419.386" y="456.592" fill="#BCBCAF" width="3.035" height="3.102"/>
					<rect x="422.948" y="452.964" fill="#D3D2C4" width="3.035" height="3.102"/>
					<rect x="426.511" y="452.964" fill="#D3D2C4" width="3.036" height="3.102"/>
					<rect x="430.073" y="452.964" fill="#D3D2C4" width="3.037" height="3.102"/>
					<rect x="433.673" y="442.079" fill="#D3D2C4" width="3.035" height="3.103"/>
					<rect x="433.673" y="445.708" fill="#D3D2C4" width="3.035" height="3.101"/>
					<rect x="433.673" y="449.335" fill="#D3D2C4" width="3.035" height="3.102"/>
					<rect x="433.673" y="452.964" fill="#D3D2C4" width="3.035" height="3.102"/>
				</g>
			</g>
			<g>
				<circle fill="#FEF7E2" cx="424.042" cy="425.511" r="5.908"/>
				
					<line fill="none" stroke="#BCBCAF" stroke-linecap="round" stroke-miterlimit="10" x1="424.042" y1="425.511" x2="422.765" y2="428.326"/>
				
					<line fill="none" stroke="#BCBCAF" stroke-linecap="round" stroke-miterlimit="10" x1="424.042" y1="425.511" x2="427.917" y2="423.766"/>
			</g>
			<g>
				<polyline fill="none" stroke="#BCBCAF" stroke-width="2" stroke-miterlimit="10" points="334.479,438.312 351.726,438.312 
					351.726,442.804 				"/>
				
					<line fill="none" stroke="#BCBCAF" stroke-width="2" stroke-miterlimit="10" x1="358.03" y1="447.283" x2="369.979" y2="447.283"/>
				<polyline fill="none" stroke="#BCBCAF" stroke-width="2" stroke-miterlimit="10" points="334.479,457.568 351.726,457.568 
					351.726,451.813 				"/>
				<g>
					<path fill="#863B96" d="M334.479,431.418v13.787h-10.953v-13.787H334.479 M336.479,429.418h-2h-10.953h-2v2v13.787v2h2h10.953
						h2v-2v-13.787V429.418L336.479,429.418z"/>
				</g>
				<g>
					<g>
						<path fill="#ED6D23" d="M358.03,442.879v8.808h-12.609v-8.808H358.03 M360.03,440.879h-2h-12.609h-2v2v8.808v2h2h12.609h2v-2
							v-8.808V440.879L360.03,440.879z"/>
					</g>
				</g>
				<g>
					<g>
						<path fill="#7CB342" d="M388.206,434.047v26.005h-16.971v-26.005H388.206 M390.206,432.047h-2h-16.971h-2v2v26.005v2h2h16.971
							h2v-2v-26.005V432.047L390.206,432.047z"/>
					</g>
				</g>
				<g>
					<path fill="#863B96" d="M334.479,453.364v8.409h-4.512v-8.409H334.479 M336.479,451.364h-2h-4.512h-2v2v8.409v2h2h4.512h2v-2
						v-8.409V451.364L336.479,451.364z"/>
				</g>
			</g>
			<g>
				<rect x="636.64" y="495.155" fill="#546E7A" width="24.264" height="3.842"/>
				<rect x="620.69" y="498.672" fill="#546E7A" width="56.162" height="10.331"/>
				
					<rect x="623.519" y="467.846" fill="#FEF7E2" stroke="#616262" stroke-width="2" stroke-miterlimit="10" width="50.505" height="27.309"/>
			</g>
			<rect x="639.407" y="368.58" fill="#546E7A" width="125.529" height="3"/>
			<rect x="653.11" y="371.516" fill="#546E7A" width="5.609" height="15.024"/>
			<rect x="745.974" y="371.516" fill="#546E7A" width="5.611" height="15.024"/>
			<g>
				<path fill="#546E7A" d="M638.507,377.57c0,0.831-0.674,1.505-1.506,1.505h-9.035c-0.831,0-1.505-0.674-1.505-1.505l0,0
					c0-0.831,0.674-1.505,1.505-1.505h9.035C637.833,376.065,638.507,376.739,638.507,377.57L638.507,377.57z"/>
				<path fill="#546E7A" d="M624.737,367.468c0.797-0.237,1.636,0.216,1.873,1.012l2.584,8.659c0.238,0.796-0.215,1.635-1.012,1.872
					l0,0c-0.795,0.238-1.635-0.215-1.871-1.012l-2.586-8.658C623.489,368.545,623.942,367.707,624.737,367.468L624.737,367.468z"/>
				<rect x="630.983" y="378.308" fill="#546E7A" width="3" height="8.453"/>
			</g>
			<g>
				<path fill="#546E7A" d="M770.177,377.57c0,0.831,0.674,1.505,1.504,1.505h9.036c0.831,0,1.505-0.674,1.505-1.505l0,0
					c0-0.831-0.674-1.505-1.505-1.505h-9.036C770.851,376.065,770.177,376.739,770.177,377.57L770.177,377.57z"/>
				<path fill="#546E7A" d="M783.944,367.468c-0.797-0.237-1.635,0.216-1.872,1.012l-2.585,8.659
					c-0.238,0.796,0.215,1.635,1.012,1.872l0,0c0.797,0.238,1.636-0.215,1.873-1.012l2.584-8.658
					C785.194,368.545,784.741,367.707,783.944,367.468L783.944,367.468z"/>
				<rect x="774.699" y="378.308" fill="#546E7A" width="3" height="8.453"/>
			</g>
			<g>
				<path fill="#AF2530" d="M771.915,374.208h8.977v-7.565c0-2.307-1.924-3.974-4.232-3.974h0.13c-2.308,0-4.874,1.667-4.874,3.974
					V374.208z"/>
				<circle fill="#C6A595" cx="776.403" cy="360.302" r="3.462"/>
				<path fill="#EEC460" d="M776.403,360.301c-1.281,0-2.436-0.641-2.949-1.795c0.641-1.025,1.668-1.794,2.949-1.794
					c1.924,0,3.461,1.539,3.461,3.462c0,0.512-0.127,1.025-0.255,1.409c-0.771-0.384-1.282-1.025-1.539-1.795
					C777.556,360.174,777.046,360.301,776.403,360.301z"/>
				<g>
					<path fill="#663D17" d="M778.011,376.587c1.65,0,3-0.848,3-1.885c0-1.037-1.35-1.885-3-1.885h-6.959c-1.65,0-3,0.848-3,1.885
						c0,1.037,1.35,1.885,3,1.885H778.011z"/>
				</g>
				<g>
					<path fill="#663D17" d="M770.997,376.755c0.672-1.508,0.436-3.063-0.523-3.457s-2.293,0.518-2.963,2.026l-3.126,7.023
						c-0.671,1.508-0.435,3.063,0.524,3.457s2.293-0.518,2.963-2.025L770.997,376.755z"/>
				</g>
			</g>
			<g>
				<path fill="#22356B" d="M636.706,374.659h-8.975v-7.565c0-2.307,1.924-3.974,4.23-3.974h-0.129c2.309,0,4.873,1.667,4.873,3.974
					V374.659z"/>
				<circle fill="#7F5F4D" cx="632.218" cy="360.752" r="3.462"/>
				<path d="M632.218,360.752c1.282,0,2.436-0.642,2.949-1.796c-0.641-1.025-1.667-1.794-2.949-1.794
					c-1.923,0-3.461,1.539-3.461,3.462c0,0.512,0.129,1.025,0.256,1.41c0.77-0.385,1.282-1.026,1.539-1.796
					C631.065,360.625,631.577,360.752,632.218,360.752z"/>
				<g>
					<path fill="#663D17" d="M630.611,377.038c-1.649,0-3-0.848-3-1.885s1.351-1.885,3-1.885h6.96c1.649,0,3,0.848,3,1.885
						s-1.351,1.885-3,1.885H630.611z"/>
				</g>
				<g>
					<path fill="#663D17" d="M637.624,377.206c-0.67-1.507-0.435-3.062,0.524-3.456s2.292,0.518,2.964,2.025l3.125,7.023
						c0.671,1.508,0.436,3.063-0.523,3.457s-2.293-0.518-2.965-2.025L637.624,377.206z"/>
				</g>
			</g>
			<g>
				<path fill="#22356B" d="M608.204,495.034l-8.654,1.405l-2.004-7.294c-0.611-2.226,0.802-4.343,3.027-4.953l-0.125,0.034
					c2.227-0.612,5.141,0.316,5.752,2.541L608.204,495.034z"/>
				<circle fill="#7F5F4D" cx="600.192" cy="481.841" r="3.462"/>
				<path d="M600.192,481.841c1.236-0.339,2.18-1.263,2.369-2.512c-0.891-0.819-2.084-1.289-3.32-0.95
					c-1.854,0.509-2.93,2.4-2.42,4.255c0.137,0.494,0.395,0.955,0.619,1.292c0.642-0.574,0.965-1.329,1.01-2.139
					C599.048,482.023,599.574,482.011,600.192,481.841z"/>
				<g>
					<path fill="#663D17" d="M602.362,498.314c-1.65,0-3-0.848-3-1.885s1.35-1.886,3-1.886h8.559c1.65,0,3,0.849,3,1.886
						s-1.35,1.885-3,1.885H602.362z"/>
				</g>
				<g>
					<path fill="#663D17" d="M611.701,498.482c-0.671-1.508-0.435-3.063,0.524-3.456c0.959-0.394,2.293,0.518,2.963,2.025
						l3.126,7.023c0.671,1.508,0.435,3.062-0.524,3.457c-0.959,0.394-2.293-0.518-2.963-2.026L611.701,498.482z"/>
				</g>
			</g>
			<g>
				<path fill="#DDB8D7" d="M734.79,374.538h-8.977v-7.564c0-2.308,1.924-3.975,4.232-3.975h-0.13c2.308,0,4.874,1.667,4.874,3.975
					V374.538z"/>
				<circle fill="#7F5F4D" cx="730.302" cy="360.631" r="3.462"/>
				<path d="M730.302,360.631c1.281,0,2.436-0.642,2.949-1.796c-0.641-1.025-1.668-1.794-2.949-1.794
					c-1.924,0-3.461,1.538-3.461,3.462c0,0.512,0.127,1.025,0.255,1.41c0.771-0.385,1.282-1.026,1.54-1.796
					C729.149,360.503,729.66,360.631,730.302,360.631z"/>
			</g>
			<g>
				<path fill="#AED580" d="M706.835,374.538h-8.977v-7.564c0-2.308,1.924-3.975,4.232-3.975h-0.131
					c2.309,0,4.875,1.667,4.875,3.975V374.538z"/>
				<circle fill="#7F5F4D" cx="702.347" cy="360.631" r="3.462"/>
				<path d="M702.347,360.631c1.281,0,2.436-0.642,2.949-1.796c-0.641-1.025-1.668-1.794-2.949-1.794
					c-1.924,0-3.461,1.538-3.461,3.462c0,0.512,0.127,1.025,0.254,1.41c0.771-0.385,1.283-1.026,1.54-1.796
					C701.193,360.503,701.704,360.631,702.347,360.631z"/>
			</g>
			<g>
				<rect x="672.892" y="378.308" fill="#546E7A" width="3" height="8.453"/>
				<path fill="#546E7A" d="M680.556,368.771c0-1.905-1.351-3.45-3.016-3.45h-6.295c-1.666,0-3.016,1.545-3.016,3.45v6.818
					c0,1.905,1.35,3.451,3.016,3.451h6.295c1.665,0,3.016-1.546,3.016-3.451V368.771z"/>
			</g>
			<polyline fill="none" stroke="#7CB342" stroke-width="2" stroke-miterlimit="10" points="620.28,335.69 644.027,320.3 
				662.951,324.234 678.86,314.291 699.286,304.911 			"/>
			<polyline fill="none" stroke="#ED6D23" stroke-width="2" stroke-miterlimit="10" points="618.687,344.603 644.22,335.689 
				664.057,343.403 680.858,340.099 706.362,338.814 			"/>
			<path fill="none" stroke="#FFFFFF" stroke-width="2" stroke-miterlimit="10" d="M613.823,289.858
				c0,4.771-3.867,8.639-8.639,8.639l0,0c-4.77,0-8.639-3.868-8.639-8.639l0,0c0-4.771,3.869-8.639,8.639-8.639l0,0
				C609.956,281.219,613.823,285.086,613.823,289.858L613.823,289.858z"/>
			<g>
				<rect x="700.671" y="378.308" fill="#546E7A" width="3" height="8.453"/>
				<path fill="#546E7A" d="M708.335,368.771c0-1.905-1.352-3.45-3.017-3.45h-6.295c-1.665,0-3.016,1.545-3.016,3.45v6.818
					c0,1.905,1.351,3.451,3.016,3.451h6.295c1.665,0,3.017-1.546,3.017-3.451V368.771z"/>
			</g>
			<g>
				<rect x="728.802" y="378.308" fill="#546E7A" width="3" height="8.453"/>
				<path fill="#546E7A" d="M736.466,368.771c0-1.905-1.352-3.45-3.016-3.45h-6.295c-1.666,0-3.016,1.545-3.016,3.45v6.818
					c0,1.905,1.35,3.451,3.016,3.451h6.295c1.664,0,3.016-1.546,3.016-3.451V368.771z"/>
			</g>
			<path fill="none" stroke="#FFFFFF" stroke-width="2" stroke-miterlimit="10" stroke-dasharray="4,4" d="M531.919,319.456
				c0,0,19.535-34.962,65.139-32.531"/>
			<g>
				<rect x="454.58" y="322.396" fill="#546E7A" width="32.36" height="64.181"/>
				<g>
					<rect x="458.442" y="326.119" fill="#90A4AE" width="18.051" height="11.046"/>
					<rect x="479.194" y="326.119" fill="#76C043" width="3.885" height="3.176"/>
					<rect x="479.194" y="333.988" fill="#90A4AE" width="3.885" height="3.177"/>
				</g>
				<g>
					<rect x="458.442" y="340.583" fill="#90A4AE" width="18.051" height="11.046"/>
					<rect x="479.194" y="340.583" fill="#76C043" width="3.885" height="3.176"/>
					<rect x="479.194" y="348.453" fill="#90A4AE" width="3.885" height="3.177"/>
				</g>
				<g>
					<rect x="458.442" y="355.048" fill="#90A4AE" width="18.051" height="11.045"/>
					<rect x="479.194" y="355.048" fill="#76C043" width="3.885" height="3.176"/>
					<rect x="479.194" y="362.917" fill="#90A4AE" width="3.885" height="3.176"/>
				</g>
				<g>
					<rect x="458.442" y="369.512" fill="#90A4AE" width="18.051" height="11.046"/>
					<rect x="479.194" y="369.512" fill="#76C043" width="3.885" height="3.176"/>
					<rect x="479.194" y="377.381" fill="#90A4AE" width="3.885" height="3.177"/>
				</g>
				<rect x="491.444" y="322.396" fill="#546E7A" width="32.361" height="64.181"/>
				<g>
					<path fill="#90A4AE" d="M513.028,347.688h-0.9v-1.801c0-2.486-2.018-4.504-4.504-4.504c-2.484,0-4.502,2.018-4.502,4.504v1.801
						h-0.901c-0.99,0-1.802,0.811-1.802,1.801v9.007c0,0.991,0.812,1.802,1.802,1.802h10.808c0.99,0,1.803-0.811,1.803-1.802v-9.007
						C514.831,348.498,514.019,347.688,513.028,347.688z M507.624,355.793c-0.99,0-1.801-0.811-1.801-1.801
						c0-0.991,0.811-1.802,1.801-1.802c0.991,0,1.803,0.811,1.803,1.802C509.427,354.983,508.615,355.793,507.624,355.793z
						 M510.417,347.688h-5.584v-1.801c0-1.54,1.252-2.792,2.791-2.792c1.541,0,2.793,1.252,2.793,2.792V347.688z"/>
				</g>
			</g>
			<path fill="none" stroke="#FFFFFF" stroke-width="2" stroke-miterlimit="10" d="M632.995,468.412
				c0,4.771-3.867,8.639-8.638,8.639l0,0c-4.771,0-8.638-3.868-8.638-8.639l0,0c0-4.771,3.867-8.639,8.638-8.639l0,0
				C629.128,459.773,632.995,463.64,632.995,468.412L632.995,468.412z"/>
			<path fill="none" stroke="#FFFFFF" stroke-width="2" stroke-miterlimit="10" d="M532.442,322.396
				c0,4.771-3.867,8.639-8.638,8.639l0,0c-4.771,0-8.638-3.867-8.638-8.639l0,0c0-4.771,3.867-8.639,8.638-8.639l0,0
				C528.575,313.757,532.442,317.625,532.442,322.396L532.442,322.396z"/>
			<path fill="none" stroke="#FFFFFF" stroke-width="2" stroke-miterlimit="10" stroke-dasharray="4,4" d="M531.919,326.119
				c0,0,76.58,38.387,92.438,133.654"/>
			<g>
				<rect x="727.929" y="316.838" fill="#ED6D23" width="6" height="30.003"/>
				<rect x="736.528" y="310.309" fill="#7CB342" width="6" height="36.532"/>
				<rect x="745.126" y="303.544" fill="#7CB342" width="6" height="43.297"/>
				<rect x="753.724" y="307.942" fill="#7CB342" width="6" height="38.899"/>
				<rect x="762.323" y="320.118" fill="#ED6D23" width="6" height="26.723"/>
				<rect x="770.921" y="307.942" fill="#7CB342" width="6" height="38.899"/>
				<rect x="779.519" y="297.85" fill="#7CB342" width="6" height="48.991"/>
			</g>
		</g>
		<g clip-path="url(#SVGID_2_)">
			<g>
				<g>
					<g>
						<path fill="#679F42" d="M1238.554,531.014c0-39.767-32.238-72.004-72.006-72.004s-72.004,32.237-72.004,72.004"/>
					</g>
					<g>
						<g>
							<path fill="#679F42" d="M1367.072,591.015c0-69.574-56.401-125.975-125.976-125.975s-125.975,56.4-125.975,125.975"/>
						</g>
						<g>
							<path fill="#679F42" d="M573.831,565.442c0-39.768-32.236-72.005-72.005-72.005c-39.767,0-72.005,32.237-72.005,72.005"/>
						</g>
						<g>
							<path fill="#679F42" d="M529.726,572.442c0-39.768-32.238-72.005-72.006-72.005c-39.766,0-72.004,32.237-72.004,72.005"/>
						</g>
						<g>
							<path fill="#679F42" d="M869.667,632.802c0-74.404-60.316-134.721-134.721-134.721c-74.405,0-134.721,60.317-134.721,134.721
								"/>
						</g>
						<g>
							<path fill="#679F42" d="M1226.488,611.073c0-90.229-73.146-163.372-163.374-163.372
								c-90.227,0-163.371,73.144-163.371,163.372"/>
						</g>
						<g>
							<path fill="#679F42" d="M307.051,591.015c0-84.79-68.736-153.526-153.527-153.526C68.734,437.489,0,506.226,0,591.015"/>
						</g>
						<g>
							<path fill="#679F42" d="M463.86,618.736c0-68.205-55.291-123.495-123.496-123.495s-123.495,55.29-123.495,123.495"/>
						</g>
						<g>
							<path fill="#679F42" d="M673.497,593.015c0-55.043-44.622-99.666-99.666-99.666c-55.043,0-99.665,44.623-99.665,99.666"/>
						</g>
						<g>
							<path fill="#679F42" d="M756.417,606.821c0-55.043-44.623-99.666-99.666-99.666c-55.044,0-99.666,44.622-99.666,99.666"/>
						</g>
						<g>
							<path fill="#679F42" d="M908.417,593.821c0-55.043-44.623-99.666-99.666-99.666c-55.044,0-99.666,44.622-99.666,99.666"/>
						</g>
						<g>
							<path fill="#679F42" d="M1061.556,592.015c0-78.893-63.955-142.849-142.848-142.849S775.86,513.123,775.86,592.015"/>
						</g>
					</g>
				</g>
			</g>
		</g>
	</g>
</g>
<g id="project_page">
</g>
<g id="Search">
</g>
<g id="user_page">
</g>
<g id="dataset_page">
</g>
<g id="styles">
</g>
<g id="Layer_1">
</g>
</svg>
